%!PS-Adobe-3.0
%%Creator: PCBNEW
%%CreationDate: Tue Oct 05 13:12:06 2021
%%Title: C:\Users\vlad.shcherbakov\Documents\PCB Designs\ledbox-git\ledbox\Fabrication\ledbox-PTH-drl_map.ps
%%Pages: 1
%%PageOrder: Ascend
%%BoundingBox: 0 0 596 842
%%DocumentMedia: A4 595 842 0 () ()
%%Orientation: Landscape
%%EndComments
%%BeginProlog
/line { newpath moveto lineto stroke } bind def
/cir0 { newpath 0 360 arc stroke } bind def
/cir1 { newpath 0 360 arc gsave fill grestore stroke } bind def
/cir2 { newpath 0 360 arc gsave fill grestore stroke } bind def
/arc0 { newpath arc stroke } bind def
/arc1 { newpath 4 index 4 index moveto arc closepath gsave fill
    grestore stroke } bind def
/arc2 { newpath 4 index 4 index moveto arc closepath gsave fill
    grestore stroke } bind def
/poly0 { stroke } bind def
/poly1 { closepath gsave fill grestore stroke } bind def
/poly2 { closepath gsave fill grestore stroke } bind def
/rect0 { rectstroke } bind def
/rect1 { rectfill } bind def
/rect2 { rectfill } bind def
/linemode0 { 0 setlinecap 0 setlinejoin 0 setlinewidth } bind def
/linemode1 { 1 setlinecap 1 setlinejoin } bind def
/dashedline { [200] 100 setdash } bind def
/solidline { [] 0 setdash } bind def
/phantomshow { moveto
    /KicadFont findfont 0.000001 scalefont setfont
    show } bind def
/textshow { gsave
    findfont exch scalefont setfont concat 1 scale 0 0 moveto show
    } bind def
/reencodefont {
  findfont dup length dict begin
  { 1 index /FID ne
    { def }
    { pop pop } ifelse
  } forall
  /Encoding ISOLatin1Encoding def
  currentdict
  end } bind def
/KicadFont /Helvetica reencodefont definefont pop
/KicadFont-Bold /Helvetica-Bold reencodefont definefont pop
/KicadFont-Oblique /Helvetica-Oblique reencodefont definefont pop
/KicadFont-BoldOblique /Helvetica-BoldOblique reencodefont definefont pop
%%EndProlog
%%Page: 1 1
%%BeginPageSetup
gsave
0.0072 0.0072 scale
linemode1
82680 0 translate 90 rotate
39.8213 setlinewidth
%%EndPageSetup
0 0 0 setrgbcolor
31.3554 setlinewidth
newpath
84489.9 78727.3 moveto
84489.9 37024.7 lineto
stroke
0 0 0 setrgbcolor
newpath
32440.1 78727.3 moveto
84489.9 78727.3 lineto
stroke
0 0 0 setrgbcolor
newpath
32440.1 37024.7 moveto
32440.1 78727.3 lineto
stroke
0 0 0 setrgbcolor
newpath
84489.9 37024.7 moveto
32440.1 37024.7 lineto
stroke
78.7399 setlinewidth
newpath
41156.8 75968 moveto
41282.3 75842.6 lineto
stroke
newpath
41282.3 75968 moveto
41156.8 75842.6 lineto
stroke
newpath
41156.8 71264.7 moveto
41282.3 71139.3 lineto
stroke
newpath
41282.3 71264.7 moveto
41156.8 71139.3 lineto
stroke
newpath
41156.8 66561.4 moveto
41282.3 66436 lineto
stroke
newpath
41282.3 66561.4 moveto
41156.8 66436 lineto
stroke
newpath
41156.8 61858.1 moveto
41282.3 61732.7 lineto
stroke
newpath
41282.3 61858.1 moveto
41156.8 61732.7 lineto
stroke
newpath
41156.8 57154.8 moveto
41282.3 57029.4 lineto
stroke
newpath
41282.3 57154.8 moveto
41156.8 57029.4 lineto
stroke
newpath
41156.8 52451.5 moveto
41282.3 52326.1 lineto
stroke
newpath
41282.3 52451.5 moveto
41156.8 52326.1 lineto
stroke
newpath
41156.8 47748.2 moveto
41282.3 47622.8 lineto
stroke
newpath
41282.3 47748.2 moveto
41156.8 47622.8 lineto
stroke
newpath
41156.8 43044.9 moveto
41282.3 42919.5 lineto
stroke
newpath
41282.3 43044.9 moveto
41156.8 42919.5 lineto
stroke
newpath
46800.8 75968 moveto
46926.2 75842.6 lineto
stroke
newpath
46926.2 75968 moveto
46800.8 75842.6 lineto
stroke
newpath
46800.8 71264.7 moveto
46926.2 71139.3 lineto
stroke
newpath
46926.2 71264.7 moveto
46800.8 71139.3 lineto
stroke
newpath
46800.8 66561.4 moveto
46926.2 66436 lineto
stroke
newpath
46926.2 66561.4 moveto
46800.8 66436 lineto
stroke
newpath
46800.8 61858.1 moveto
46926.2 61732.7 lineto
stroke
newpath
46926.2 61858.1 moveto
46800.8 61732.7 lineto
stroke
newpath
46800.8 57154.8 moveto
46926.2 57029.4 lineto
stroke
newpath
46926.2 57154.8 moveto
46800.8 57029.4 lineto
stroke
newpath
46800.8 52451.5 moveto
46926.2 52326.1 lineto
stroke
newpath
46926.2 52451.5 moveto
46800.8 52326.1 lineto
stroke
newpath
46800.8 47748.2 moveto
46926.2 47622.8 lineto
stroke
newpath
46926.2 47748.2 moveto
46800.8 47622.8 lineto
stroke
newpath
46800.8 43044.9 moveto
46926.2 42919.5 lineto
stroke
newpath
46926.2 43044.9 moveto
46800.8 42919.5 lineto
stroke
newpath
52444.8 75968 moveto
52570.2 75842.6 lineto
stroke
newpath
52570.2 75968 moveto
52444.8 75842.6 lineto
stroke
newpath
52444.8 71264.7 moveto
52570.2 71139.3 lineto
stroke
newpath
52570.2 71264.7 moveto
52444.8 71139.3 lineto
stroke
newpath
52444.8 66561.4 moveto
52570.2 66436 lineto
stroke
newpath
52570.2 66561.4 moveto
52444.8 66436 lineto
stroke
newpath
52444.8 61858.1 moveto
52570.2 61732.7 lineto
stroke
newpath
52570.2 61858.1 moveto
52444.8 61732.7 lineto
stroke
newpath
52444.8 57154.8 moveto
52570.2 57029.4 lineto
stroke
newpath
52570.2 57154.8 moveto
52444.8 57029.4 lineto
stroke
newpath
52444.8 52451.5 moveto
52570.2 52326.1 lineto
stroke
newpath
52570.2 52451.5 moveto
52444.8 52326.1 lineto
stroke
newpath
52444.8 47748.2 moveto
52570.2 47622.8 lineto
stroke
newpath
52570.2 47748.2 moveto
52444.8 47622.8 lineto
stroke
newpath
52444.8 43044.9 moveto
52570.2 42919.5 lineto
stroke
newpath
52570.2 43044.9 moveto
52444.8 42919.5 lineto
stroke
newpath
58088.7 75968 moveto
58214.2 75842.6 lineto
stroke
newpath
58214.2 75968 moveto
58088.7 75842.6 lineto
stroke
newpath
58088.7 71264.7 moveto
58214.2 71139.3 lineto
stroke
newpath
58214.2 71264.7 moveto
58088.7 71139.3 lineto
stroke
newpath
58088.7 66561.4 moveto
58214.2 66436 lineto
stroke
newpath
58214.2 66561.4 moveto
58088.7 66436 lineto
stroke
newpath
58088.7 61858.1 moveto
58214.2 61732.7 lineto
stroke
newpath
58214.2 61858.1 moveto
58088.7 61732.7 lineto
stroke
newpath
58088.7 57154.8 moveto
58214.2 57029.4 lineto
stroke
newpath
58214.2 57154.8 moveto
58088.7 57029.4 lineto
stroke
newpath
58088.7 52451.5 moveto
58214.2 52326.1 lineto
stroke
newpath
58214.2 52451.5 moveto
58088.7 52326.1 lineto
stroke
newpath
58088.7 47748.2 moveto
58214.2 47622.8 lineto
stroke
newpath
58214.2 47748.2 moveto
58088.7 47622.8 lineto
stroke
newpath
58088.7 43044.9 moveto
58214.2 42919.5 lineto
stroke
newpath
58214.2 43044.9 moveto
58088.7 42919.5 lineto
stroke
newpath
63732.7 75968 moveto
63858.1 75842.6 lineto
stroke
newpath
63858.1 75968 moveto
63732.7 75842.6 lineto
stroke
newpath
63732.7 71264.7 moveto
63858.1 71139.3 lineto
stroke
newpath
63858.1 71264.7 moveto
63732.7 71139.3 lineto
stroke
newpath
63732.7 66561.4 moveto
63858.1 66436 lineto
stroke
newpath
63858.1 66561.4 moveto
63732.7 66436 lineto
stroke
newpath
63732.7 61858.1 moveto
63858.1 61732.7 lineto
stroke
newpath
63858.1 61858.1 moveto
63732.7 61732.7 lineto
stroke
newpath
63732.7 57154.8 moveto
63858.1 57029.4 lineto
stroke
newpath
63858.1 57154.8 moveto
63732.7 57029.4 lineto
stroke
newpath
63732.7 52451.5 moveto
63858.1 52326.1 lineto
stroke
newpath
63858.1 52451.5 moveto
63732.7 52326.1 lineto
stroke
newpath
63732.7 47748.2 moveto
63858.1 47622.8 lineto
stroke
newpath
63858.1 47748.2 moveto
63732.7 47622.8 lineto
stroke
newpath
63732.7 43044.9 moveto
63858.1 42919.5 lineto
stroke
newpath
63858.1 43044.9 moveto
63732.7 42919.5 lineto
stroke
newpath
69376.7 75968 moveto
69502.1 75842.6 lineto
stroke
newpath
69502.1 75968 moveto
69376.7 75842.6 lineto
stroke
newpath
69376.7 71264.7 moveto
69502.1 71139.3 lineto
stroke
newpath
69502.1 71264.7 moveto
69376.7 71139.3 lineto
stroke
newpath
69376.7 66561.4 moveto
69502.1 66436 lineto
stroke
newpath
69502.1 66561.4 moveto
69376.7 66436 lineto
stroke
newpath
69376.7 61858.1 moveto
69502.1 61732.7 lineto
stroke
newpath
69502.1 61858.1 moveto
69376.7 61732.7 lineto
stroke
newpath
69376.7 57154.8 moveto
69502.1 57029.4 lineto
stroke
newpath
69502.1 57154.8 moveto
69376.7 57029.4 lineto
stroke
newpath
69376.7 52451.5 moveto
69502.1 52326.1 lineto
stroke
newpath
69502.1 52451.5 moveto
69376.7 52326.1 lineto
stroke
newpath
69376.7 47748.2 moveto
69502.1 47622.8 lineto
stroke
newpath
69502.1 47748.2 moveto
69376.7 47622.8 lineto
stroke
newpath
69376.7 43044.9 moveto
69502.1 42919.5 lineto
stroke
newpath
69502.1 43044.9 moveto
69376.7 42919.5 lineto
stroke
newpath
75020.6 75968 moveto
75146.1 75842.6 lineto
stroke
newpath
75146.1 75968 moveto
75020.6 75842.6 lineto
stroke
newpath
75020.6 71264.7 moveto
75146.1 71139.3 lineto
stroke
newpath
75146.1 71264.7 moveto
75020.6 71139.3 lineto
stroke
newpath
75020.6 66561.4 moveto
75146.1 66436 lineto
stroke
newpath
75146.1 66561.4 moveto
75020.6 66436 lineto
stroke
newpath
75020.6 61858.1 moveto
75146.1 61732.7 lineto
stroke
newpath
75146.1 61858.1 moveto
75020.6 61732.7 lineto
stroke
newpath
75020.6 57154.8 moveto
75146.1 57029.4 lineto
stroke
newpath
75146.1 57154.8 moveto
75020.6 57029.4 lineto
stroke
newpath
75020.6 52451.5 moveto
75146.1 52326.1 lineto
stroke
newpath
75146.1 52451.5 moveto
75020.6 52326.1 lineto
stroke
newpath
75020.6 47748.2 moveto
75146.1 47622.8 lineto
stroke
newpath
75146.1 47748.2 moveto
75020.6 47622.8 lineto
stroke
newpath
75020.6 43044.9 moveto
75146.1 42919.5 lineto
stroke
newpath
75146.1 43044.9 moveto
75020.6 42919.5 lineto
stroke
newpath
80664.6 75968 moveto
80790 75842.6 lineto
stroke
newpath
80790 75968 moveto
80664.6 75842.6 lineto
stroke
newpath
80664.6 71264.7 moveto
80790 71139.3 lineto
stroke
newpath
80790 71264.7 moveto
80664.6 71139.3 lineto
stroke
newpath
80664.6 66561.4 moveto
80790 66436 lineto
stroke
newpath
80790 66561.4 moveto
80664.6 66436 lineto
stroke
newpath
80664.6 61858.1 moveto
80790 61732.7 lineto
stroke
newpath
80790 61858.1 moveto
80664.6 61732.7 lineto
stroke
newpath
80664.6 57154.8 moveto
80790 57029.4 lineto
stroke
newpath
80790 57154.8 moveto
80664.6 57029.4 lineto
stroke
newpath
80664.6 52451.5 moveto
80790 52326.1 lineto
stroke
newpath
80790 52451.5 moveto
80664.6 52326.1 lineto
stroke
newpath
80664.6 47748.2 moveto
80790 47622.8 lineto
stroke
newpath
80790 47748.2 moveto
80664.6 47622.8 lineto
stroke
newpath
80664.6 43044.9 moveto
80790 42919.5 lineto
stroke
newpath
80790 43044.9 moveto
80664.6 42919.5 lineto
stroke
33694.3 64931 71.6784 cir0
34092.5 64931 71.6784 cir0
34490.7 64931 71.6784 cir0
newpath
38005.6 75513.4 moveto
38005.6 75199.8 lineto
stroke
newpath
37848.9 75356.6 moveto
38162.4 75356.6 lineto
stroke
newpath
38005.6 73475.3 moveto
38005.6 73161.7 lineto
stroke
newpath
37848.9 73318.5 moveto
38162.4 73318.5 lineto
stroke
newpath
38005.6 70810.1 moveto
38005.6 70496.5 lineto
stroke
newpath
37848.9 70653.3 moveto
38162.4 70653.3 lineto
stroke
newpath
38005.6 68772 moveto
38005.6 68458.4 lineto
stroke
newpath
37848.9 68615.2 moveto
38162.4 68615.2 lineto
stroke
newpath
38005.6 66106.8 moveto
38005.6 65793.2 lineto
stroke
newpath
37848.9 65950 moveto
38162.4 65950 lineto
stroke
newpath
38005.6 64068.7 moveto
38005.6 63755.1 lineto
stroke
newpath
37848.9 63911.9 moveto
38162.4 63911.9 lineto
stroke
newpath
38005.6 61403.5 moveto
38005.6 61089.9 lineto
stroke
newpath
37848.9 61246.7 moveto
38162.4 61246.7 lineto
stroke
newpath
38005.6 59365.4 moveto
38005.6 59051.8 lineto
stroke
newpath
37848.9 59208.6 moveto
38162.4 59208.6 lineto
stroke
newpath
38005.6 56700.2 moveto
38005.6 56386.6 lineto
stroke
newpath
37848.9 56543.4 moveto
38162.4 56543.4 lineto
stroke
newpath
38005.6 54662.1 moveto
38005.6 54348.5 lineto
stroke
newpath
37848.9 54505.3 moveto
38162.4 54505.3 lineto
stroke
newpath
38005.6 51996.9 moveto
38005.6 51683.3 lineto
stroke
newpath
37848.9 51840.1 moveto
38162.4 51840.1 lineto
stroke
newpath
38005.6 49958.8 moveto
38005.6 49645.2 lineto
stroke
newpath
37848.9 49802 moveto
38162.4 49802 lineto
stroke
newpath
38005.6 47293.6 moveto
38005.6 46980 lineto
stroke
newpath
37848.9 47136.8 moveto
38162.4 47136.8 lineto
stroke
newpath
38005.6 45255.5 moveto
38005.6 44941.9 lineto
stroke
newpath
37848.9 45098.7 moveto
38162.4 45098.7 lineto
stroke
newpath
38005.6 42590.3 moveto
38005.6 42276.7 lineto
stroke
newpath
37848.9 42433.5 moveto
38162.4 42433.5 lineto
stroke
newpath
38005.6 40552.2 moveto
38005.6 40238.6 lineto
stroke
newpath
37848.9 40395.4 moveto
38162.4 40395.4 lineto
stroke
newpath
39416.6 75513.4 moveto
39416.6 75199.8 lineto
stroke
newpath
39259.8 75356.6 moveto
39573.4 75356.6 lineto
stroke
newpath
39416.6 73475.3 moveto
39416.6 73161.7 lineto
stroke
newpath
39259.8 73318.5 moveto
39573.4 73318.5 lineto
stroke
newpath
39416.6 70810.1 moveto
39416.6 70496.5 lineto
stroke
newpath
39259.8 70653.3 moveto
39573.4 70653.3 lineto
stroke
newpath
39416.6 68772 moveto
39416.6 68458.4 lineto
stroke
newpath
39259.8 68615.2 moveto
39573.4 68615.2 lineto
stroke
newpath
39416.6 66106.8 moveto
39416.6 65793.2 lineto
stroke
newpath
39259.8 65950 moveto
39573.4 65950 lineto
stroke
newpath
39416.6 64068.7 moveto
39416.6 63755.1 lineto
stroke
newpath
39259.8 63911.9 moveto
39573.4 63911.9 lineto
stroke
newpath
39416.6 61403.5 moveto
39416.6 61089.9 lineto
stroke
newpath
39259.8 61246.7 moveto
39573.4 61246.7 lineto
stroke
newpath
39416.6 59365.4 moveto
39416.6 59051.8 lineto
stroke
newpath
39259.8 59208.6 moveto
39573.4 59208.6 lineto
stroke
newpath
39416.6 56700.2 moveto
39416.6 56386.6 lineto
stroke
newpath
39259.8 56543.4 moveto
39573.4 56543.4 lineto
stroke
newpath
39416.6 54662.1 moveto
39416.6 54348.5 lineto
stroke
newpath
39259.8 54505.3 moveto
39573.4 54505.3 lineto
stroke
newpath
39416.6 51996.9 moveto
39416.6 51683.3 lineto
stroke
newpath
39259.8 51840.1 moveto
39573.4 51840.1 lineto
stroke
newpath
39416.6 49958.8 moveto
39416.6 49645.2 lineto
stroke
newpath
39259.8 49802 moveto
39573.4 49802 lineto
stroke
newpath
39416.6 47293.6 moveto
39416.6 46980 lineto
stroke
newpath
39259.8 47136.8 moveto
39573.4 47136.8 lineto
stroke
newpath
39416.6 45255.5 moveto
39416.6 44941.9 lineto
stroke
newpath
39259.8 45098.7 moveto
39573.4 45098.7 lineto
stroke
newpath
39416.6 42590.3 moveto
39416.6 42276.7 lineto
stroke
newpath
39259.8 42433.5 moveto
39573.4 42433.5 lineto
stroke
newpath
39416.6 40552.2 moveto
39416.6 40238.6 lineto
stroke
newpath
39259.8 40395.4 moveto
39573.4 40395.4 lineto
stroke
newpath
43649.6 75513.4 moveto
43649.6 75199.8 lineto
stroke
newpath
43492.8 75356.6 moveto
43806.4 75356.6 lineto
stroke
newpath
43649.6 73475.3 moveto
43649.6 73161.7 lineto
stroke
newpath
43492.8 73318.5 moveto
43806.4 73318.5 lineto
stroke
newpath
43649.6 70810.1 moveto
43649.6 70496.5 lineto
stroke
newpath
43492.8 70653.3 moveto
43806.4 70653.3 lineto
stroke
newpath
43649.6 68772 moveto
43649.6 68458.4 lineto
stroke
newpath
43492.8 68615.2 moveto
43806.4 68615.2 lineto
stroke
newpath
43649.6 66106.8 moveto
43649.6 65793.2 lineto
stroke
newpath
43492.8 65950 moveto
43806.4 65950 lineto
stroke
newpath
43649.6 64068.7 moveto
43649.6 63755.1 lineto
stroke
newpath
43492.8 63911.9 moveto
43806.4 63911.9 lineto
stroke
newpath
43649.6 61403.5 moveto
43649.6 61089.9 lineto
stroke
newpath
43492.8 61246.7 moveto
43806.4 61246.7 lineto
stroke
newpath
43649.6 59365.4 moveto
43649.6 59051.8 lineto
stroke
newpath
43492.8 59208.6 moveto
43806.4 59208.6 lineto
stroke
newpath
43649.6 56700.2 moveto
43649.6 56386.6 lineto
stroke
newpath
43492.8 56543.4 moveto
43806.4 56543.4 lineto
stroke
newpath
43649.6 54662.1 moveto
43649.6 54348.5 lineto
stroke
newpath
43492.8 54505.3 moveto
43806.4 54505.3 lineto
stroke
newpath
43649.6 51996.9 moveto
43649.6 51683.3 lineto
stroke
newpath
43492.8 51840.1 moveto
43806.4 51840.1 lineto
stroke
newpath
43649.6 49958.8 moveto
43649.6 49645.2 lineto
stroke
newpath
43492.8 49802 moveto
43806.4 49802 lineto
stroke
newpath
43649.6 47293.6 moveto
43649.6 46980 lineto
stroke
newpath
43492.8 47136.8 moveto
43806.4 47136.8 lineto
stroke
newpath
43649.6 45255.5 moveto
43649.6 44941.9 lineto
stroke
newpath
43492.8 45098.7 moveto
43806.4 45098.7 lineto
stroke
newpath
43649.6 42590.3 moveto
43649.6 42276.7 lineto
stroke
newpath
43492.8 42433.5 moveto
43806.4 42433.5 lineto
stroke
newpath
43649.6 40552.2 moveto
43649.6 40238.6 lineto
stroke
newpath
43492.8 40395.4 moveto
43806.4 40395.4 lineto
stroke
newpath
45060.6 75513.4 moveto
45060.6 75199.8 lineto
stroke
newpath
44903.8 75356.6 moveto
45217.4 75356.6 lineto
stroke
newpath
45060.6 73475.3 moveto
45060.6 73161.7 lineto
stroke
newpath
44903.8 73318.5 moveto
45217.4 73318.5 lineto
stroke
newpath
45060.6 70810.1 moveto
45060.6 70496.5 lineto
stroke
newpath
44903.8 70653.3 moveto
45217.4 70653.3 lineto
stroke
newpath
45060.6 68772 moveto
45060.6 68458.4 lineto
stroke
newpath
44903.8 68615.2 moveto
45217.4 68615.2 lineto
stroke
newpath
45060.6 66106.8 moveto
45060.6 65793.2 lineto
stroke
newpath
44903.8 65950 moveto
45217.4 65950 lineto
stroke
newpath
45060.6 64068.7 moveto
45060.6 63755.1 lineto
stroke
newpath
44903.8 63911.9 moveto
45217.4 63911.9 lineto
stroke
newpath
45060.6 61403.5 moveto
45060.6 61089.9 lineto
stroke
newpath
44903.8 61246.7 moveto
45217.4 61246.7 lineto
stroke
newpath
45060.6 59365.4 moveto
45060.6 59051.8 lineto
stroke
newpath
44903.8 59208.6 moveto
45217.4 59208.6 lineto
stroke
newpath
45060.6 56700.2 moveto
45060.6 56386.6 lineto
stroke
newpath
44903.8 56543.4 moveto
45217.4 56543.4 lineto
stroke
newpath
45060.6 54662.1 moveto
45060.6 54348.5 lineto
stroke
newpath
44903.8 54505.3 moveto
45217.4 54505.3 lineto
stroke
newpath
45060.6 51996.9 moveto
45060.6 51683.3 lineto
stroke
newpath
44903.8 51840.1 moveto
45217.4 51840.1 lineto
stroke
newpath
45060.6 49958.8 moveto
45060.6 49645.2 lineto
stroke
newpath
44903.8 49802 moveto
45217.4 49802 lineto
stroke
newpath
45060.6 47293.6 moveto
45060.6 46980 lineto
stroke
newpath
44903.8 47136.8 moveto
45217.4 47136.8 lineto
stroke
newpath
45060.6 45255.5 moveto
45060.6 44941.9 lineto
stroke
newpath
44903.8 45098.7 moveto
45217.4 45098.7 lineto
stroke
newpath
45060.6 42590.3 moveto
45060.6 42276.7 lineto
stroke
newpath
44903.8 42433.5 moveto
45217.4 42433.5 lineto
stroke
newpath
45060.6 40552.2 moveto
45060.6 40238.6 lineto
stroke
newpath
44903.8 40395.4 moveto
45217.4 40395.4 lineto
stroke
newpath
49293.6 75513.4 moveto
49293.6 75199.8 lineto
stroke
newpath
49136.8 75356.6 moveto
49450.3 75356.6 lineto
stroke
newpath
49293.6 73475.3 moveto
49293.6 73161.7 lineto
stroke
newpath
49136.8 73318.5 moveto
49450.3 73318.5 lineto
stroke
newpath
49293.6 70810.1 moveto
49293.6 70496.5 lineto
stroke
newpath
49136.8 70653.3 moveto
49450.3 70653.3 lineto
stroke
newpath
49293.6 68772 moveto
49293.6 68458.4 lineto
stroke
newpath
49136.8 68615.2 moveto
49450.3 68615.2 lineto
stroke
newpath
49293.6 66106.8 moveto
49293.6 65793.2 lineto
stroke
newpath
49136.8 65950 moveto
49450.3 65950 lineto
stroke
newpath
49293.6 64068.7 moveto
49293.6 63755.1 lineto
stroke
newpath
49136.8 63911.9 moveto
49450.3 63911.9 lineto
stroke
newpath
49293.6 61403.5 moveto
49293.6 61089.9 lineto
stroke
newpath
49136.8 61246.7 moveto
49450.3 61246.7 lineto
stroke
newpath
49293.6 59365.4 moveto
49293.6 59051.8 lineto
stroke
newpath
49136.8 59208.6 moveto
49450.3 59208.6 lineto
stroke
newpath
49293.6 56700.2 moveto
49293.6 56386.6 lineto
stroke
newpath
49136.8 56543.4 moveto
49450.3 56543.4 lineto
stroke
newpath
49293.6 54662.1 moveto
49293.6 54348.5 lineto
stroke
newpath
49136.8 54505.3 moveto
49450.3 54505.3 lineto
stroke
newpath
49293.6 51996.9 moveto
49293.6 51683.3 lineto
stroke
newpath
49136.8 51840.1 moveto
49450.3 51840.1 lineto
stroke
newpath
49293.6 49958.8 moveto
49293.6 49645.2 lineto
stroke
newpath
49136.8 49802 moveto
49450.3 49802 lineto
stroke
newpath
49293.6 47293.6 moveto
49293.6 46980 lineto
stroke
newpath
49136.8 47136.8 moveto
49450.3 47136.8 lineto
stroke
newpath
49293.6 45255.5 moveto
49293.6 44941.9 lineto
stroke
newpath
49136.8 45098.7 moveto
49450.3 45098.7 lineto
stroke
newpath
49293.6 42590.3 moveto
49293.6 42276.7 lineto
stroke
newpath
49136.8 42433.5 moveto
49450.3 42433.5 lineto
stroke
newpath
49293.6 40552.2 moveto
49293.6 40238.6 lineto
stroke
newpath
49136.8 40395.4 moveto
49450.3 40395.4 lineto
stroke
newpath
50704.5 75513.4 moveto
50704.5 75199.8 lineto
stroke
newpath
50547.8 75356.6 moveto
50861.3 75356.6 lineto
stroke
newpath
50704.5 73475.3 moveto
50704.5 73161.7 lineto
stroke
newpath
50547.8 73318.5 moveto
50861.3 73318.5 lineto
stroke
newpath
50704.5 70810.1 moveto
50704.5 70496.5 lineto
stroke
newpath
50547.8 70653.3 moveto
50861.3 70653.3 lineto
stroke
newpath
50704.5 68772 moveto
50704.5 68458.4 lineto
stroke
newpath
50547.8 68615.2 moveto
50861.3 68615.2 lineto
stroke
newpath
50704.5 66106.8 moveto
50704.5 65793.2 lineto
stroke
newpath
50547.8 65950 moveto
50861.3 65950 lineto
stroke
newpath
50704.5 64068.7 moveto
50704.5 63755.1 lineto
stroke
newpath
50547.8 63911.9 moveto
50861.3 63911.9 lineto
stroke
newpath
50704.5 61403.5 moveto
50704.5 61089.9 lineto
stroke
newpath
50547.8 61246.7 moveto
50861.3 61246.7 lineto
stroke
newpath
50704.5 59365.4 moveto
50704.5 59051.8 lineto
stroke
newpath
50547.8 59208.6 moveto
50861.3 59208.6 lineto
stroke
newpath
50704.5 56700.2 moveto
50704.5 56386.6 lineto
stroke
newpath
50547.8 56543.4 moveto
50861.3 56543.4 lineto
stroke
newpath
50704.5 54662.1 moveto
50704.5 54348.5 lineto
stroke
newpath
50547.8 54505.3 moveto
50861.3 54505.3 lineto
stroke
newpath
50704.5 51996.9 moveto
50704.5 51683.3 lineto
stroke
newpath
50547.8 51840.1 moveto
50861.3 51840.1 lineto
stroke
newpath
50704.5 49958.8 moveto
50704.5 49645.2 lineto
stroke
newpath
50547.8 49802 moveto
50861.3 49802 lineto
stroke
newpath
50704.5 47293.6 moveto
50704.5 46980 lineto
stroke
newpath
50547.8 47136.8 moveto
50861.3 47136.8 lineto
stroke
newpath
50704.5 45255.5 moveto
50704.5 44941.9 lineto
stroke
newpath
50547.8 45098.7 moveto
50861.3 45098.7 lineto
stroke
newpath
50704.5 42590.3 moveto
50704.5 42276.7 lineto
stroke
newpath
50547.8 42433.5 moveto
50861.3 42433.5 lineto
stroke
newpath
50704.5 40552.2 moveto
50704.5 40238.6 lineto
stroke
newpath
50547.8 40395.4 moveto
50861.3 40395.4 lineto
stroke
newpath
54937.5 75513.4 moveto
54937.5 75199.8 lineto
stroke
newpath
54780.7 75356.6 moveto
55094.3 75356.6 lineto
stroke
newpath
54937.5 73475.3 moveto
54937.5 73161.7 lineto
stroke
newpath
54780.7 73318.5 moveto
55094.3 73318.5 lineto
stroke
newpath
54937.5 70810.1 moveto
54937.5 70496.5 lineto
stroke
newpath
54780.7 70653.3 moveto
55094.3 70653.3 lineto
stroke
newpath
54937.5 68772 moveto
54937.5 68458.4 lineto
stroke
newpath
54780.7 68615.2 moveto
55094.3 68615.2 lineto
stroke
newpath
54937.5 66106.8 moveto
54937.5 65793.2 lineto
stroke
newpath
54780.7 65950 moveto
55094.3 65950 lineto
stroke
newpath
54937.5 64068.7 moveto
54937.5 63755.1 lineto
stroke
newpath
54780.7 63911.9 moveto
55094.3 63911.9 lineto
stroke
newpath
54937.5 61403.5 moveto
54937.5 61089.9 lineto
stroke
newpath
54780.7 61246.7 moveto
55094.3 61246.7 lineto
stroke
newpath
54937.5 59365.4 moveto
54937.5 59051.8 lineto
stroke
newpath
54780.7 59208.6 moveto
55094.3 59208.6 lineto
stroke
newpath
54937.5 56700.2 moveto
54937.5 56386.6 lineto
stroke
newpath
54780.7 56543.4 moveto
55094.3 56543.4 lineto
stroke
newpath
54937.5 54662.1 moveto
54937.5 54348.5 lineto
stroke
newpath
54780.7 54505.3 moveto
55094.3 54505.3 lineto
stroke
newpath
54937.5 51996.9 moveto
54937.5 51683.3 lineto
stroke
newpath
54780.7 51840.1 moveto
55094.3 51840.1 lineto
stroke
newpath
54937.5 49958.8 moveto
54937.5 49645.2 lineto
stroke
newpath
54780.7 49802 moveto
55094.3 49802 lineto
stroke
newpath
54937.5 47293.6 moveto
54937.5 46980 lineto
stroke
newpath
54780.7 47136.8 moveto
55094.3 47136.8 lineto
stroke
newpath
54937.5 45255.5 moveto
54937.5 44941.9 lineto
stroke
newpath
54780.7 45098.7 moveto
55094.3 45098.7 lineto
stroke
newpath
54937.5 42590.3 moveto
54937.5 42276.7 lineto
stroke
newpath
54780.7 42433.5 moveto
55094.3 42433.5 lineto
stroke
newpath
54937.5 40552.2 moveto
54937.5 40238.6 lineto
stroke
newpath
54780.7 40395.4 moveto
55094.3 40395.4 lineto
stroke
newpath
56348.5 75513.4 moveto
56348.5 75199.8 lineto
stroke
newpath
56191.7 75356.6 moveto
56505.3 75356.6 lineto
stroke
newpath
56348.5 73475.3 moveto
56348.5 73161.7 lineto
stroke
newpath
56191.7 73318.5 moveto
56505.3 73318.5 lineto
stroke
newpath
56348.5 70810.1 moveto
56348.5 70496.5 lineto
stroke
newpath
56191.7 70653.3 moveto
56505.3 70653.3 lineto
stroke
newpath
56348.5 68772 moveto
56348.5 68458.4 lineto
stroke
newpath
56191.7 68615.2 moveto
56505.3 68615.2 lineto
stroke
newpath
56348.5 66106.8 moveto
56348.5 65793.2 lineto
stroke
newpath
56191.7 65950 moveto
56505.3 65950 lineto
stroke
newpath
56348.5 64068.7 moveto
56348.5 63755.1 lineto
stroke
newpath
56191.7 63911.9 moveto
56505.3 63911.9 lineto
stroke
newpath
56348.5 61403.5 moveto
56348.5 61089.9 lineto
stroke
newpath
56191.7 61246.7 moveto
56505.3 61246.7 lineto
stroke
newpath
56348.5 59365.4 moveto
56348.5 59051.8 lineto
stroke
newpath
56191.7 59208.6 moveto
56505.3 59208.6 lineto
stroke
newpath
56348.5 56700.2 moveto
56348.5 56386.6 lineto
stroke
newpath
56191.7 56543.4 moveto
56505.3 56543.4 lineto
stroke
newpath
56348.5 54662.1 moveto
56348.5 54348.5 lineto
stroke
newpath
56191.7 54505.3 moveto
56505.3 54505.3 lineto
stroke
newpath
56348.5 51996.9 moveto
56348.5 51683.3 lineto
stroke
newpath
56191.7 51840.1 moveto
56505.3 51840.1 lineto
stroke
newpath
56348.5 49958.8 moveto
56348.5 49645.2 lineto
stroke
newpath
56191.7 49802 moveto
56505.3 49802 lineto
stroke
newpath
56348.5 47293.6 moveto
56348.5 46980 lineto
stroke
newpath
56191.7 47136.8 moveto
56505.3 47136.8 lineto
stroke
newpath
56348.5 45255.5 moveto
56348.5 44941.9 lineto
stroke
newpath
56191.7 45098.7 moveto
56505.3 45098.7 lineto
stroke
newpath
56348.5 42590.3 moveto
56348.5 42276.7 lineto
stroke
newpath
56191.7 42433.5 moveto
56505.3 42433.5 lineto
stroke
newpath
56348.5 40552.2 moveto
56348.5 40238.6 lineto
stroke
newpath
56191.7 40395.4 moveto
56505.3 40395.4 lineto
stroke
newpath
60581.5 75513.4 moveto
60581.5 75199.8 lineto
stroke
newpath
60424.7 75356.6 moveto
60738.3 75356.6 lineto
stroke
newpath
60581.5 73475.3 moveto
60581.5 73161.7 lineto
stroke
newpath
60424.7 73318.5 moveto
60738.3 73318.5 lineto
stroke
newpath
60581.5 70810.1 moveto
60581.5 70496.5 lineto
stroke
newpath
60424.7 70653.3 moveto
60738.3 70653.3 lineto
stroke
newpath
60581.5 68772 moveto
60581.5 68458.4 lineto
stroke
newpath
60424.7 68615.2 moveto
60738.3 68615.2 lineto
stroke
newpath
60581.5 66106.8 moveto
60581.5 65793.2 lineto
stroke
newpath
60424.7 65950 moveto
60738.3 65950 lineto
stroke
newpath
60581.5 64068.7 moveto
60581.5 63755.1 lineto
stroke
newpath
60424.7 63911.9 moveto
60738.3 63911.9 lineto
stroke
newpath
60581.5 61403.5 moveto
60581.5 61089.9 lineto
stroke
newpath
60424.7 61246.7 moveto
60738.3 61246.7 lineto
stroke
newpath
60581.5 59365.4 moveto
60581.5 59051.8 lineto
stroke
newpath
60424.7 59208.6 moveto
60738.3 59208.6 lineto
stroke
newpath
60581.5 56700.2 moveto
60581.5 56386.6 lineto
stroke
newpath
60424.7 56543.4 moveto
60738.3 56543.4 lineto
stroke
newpath
60581.5 54662.1 moveto
60581.5 54348.5 lineto
stroke
newpath
60424.7 54505.3 moveto
60738.3 54505.3 lineto
stroke
newpath
60581.5 51996.9 moveto
60581.5 51683.3 lineto
stroke
newpath
60424.7 51840.1 moveto
60738.3 51840.1 lineto
stroke
newpath
60581.5 49958.8 moveto
60581.5 49645.2 lineto
stroke
newpath
60424.7 49802 moveto
60738.3 49802 lineto
stroke
newpath
60581.5 47293.6 moveto
60581.5 46980 lineto
stroke
newpath
60424.7 47136.8 moveto
60738.3 47136.8 lineto
stroke
newpath
60581.5 45255.5 moveto
60581.5 44941.9 lineto
stroke
newpath
60424.7 45098.7 moveto
60738.3 45098.7 lineto
stroke
newpath
60581.5 42590.3 moveto
60581.5 42276.7 lineto
stroke
newpath
60424.7 42433.5 moveto
60738.3 42433.5 lineto
stroke
newpath
60581.5 40552.2 moveto
60581.5 40238.6 lineto
stroke
newpath
60424.7 40395.4 moveto
60738.3 40395.4 lineto
stroke
newpath
61992.5 75513.4 moveto
61992.5 75199.8 lineto
stroke
newpath
61835.7 75356.6 moveto
62149.3 75356.6 lineto
stroke
newpath
61992.5 73475.3 moveto
61992.5 73161.7 lineto
stroke
newpath
61835.7 73318.5 moveto
62149.3 73318.5 lineto
stroke
newpath
61992.5 70810.1 moveto
61992.5 70496.5 lineto
stroke
newpath
61835.7 70653.3 moveto
62149.3 70653.3 lineto
stroke
newpath
61992.5 68772 moveto
61992.5 68458.4 lineto
stroke
newpath
61835.7 68615.2 moveto
62149.3 68615.2 lineto
stroke
newpath
61992.5 66106.8 moveto
61992.5 65793.2 lineto
stroke
newpath
61835.7 65950 moveto
62149.3 65950 lineto
stroke
newpath
61992.5 64068.7 moveto
61992.5 63755.1 lineto
stroke
newpath
61835.7 63911.9 moveto
62149.3 63911.9 lineto
stroke
newpath
61992.5 61403.5 moveto
61992.5 61089.9 lineto
stroke
newpath
61835.7 61246.7 moveto
62149.3 61246.7 lineto
stroke
newpath
61992.5 59365.4 moveto
61992.5 59051.8 lineto
stroke
newpath
61835.7 59208.6 moveto
62149.3 59208.6 lineto
stroke
newpath
61992.5 56700.2 moveto
61992.5 56386.6 lineto
stroke
newpath
61835.7 56543.4 moveto
62149.3 56543.4 lineto
stroke
newpath
61992.5 54662.1 moveto
61992.5 54348.5 lineto
stroke
newpath
61835.7 54505.3 moveto
62149.3 54505.3 lineto
stroke
newpath
61992.5 51996.9 moveto
61992.5 51683.3 lineto
stroke
newpath
61835.7 51840.1 moveto
62149.3 51840.1 lineto
stroke
newpath
61992.5 49958.8 moveto
61992.5 49645.2 lineto
stroke
newpath
61835.7 49802 moveto
62149.3 49802 lineto
stroke
newpath
61992.5 47293.6 moveto
61992.5 46980 lineto
stroke
newpath
61835.7 47136.8 moveto
62149.3 47136.8 lineto
stroke
newpath
61992.5 45255.5 moveto
61992.5 44941.9 lineto
stroke
newpath
61835.7 45098.7 moveto
62149.3 45098.7 lineto
stroke
newpath
61992.5 42590.3 moveto
61992.5 42276.7 lineto
stroke
newpath
61835.7 42433.5 moveto
62149.3 42433.5 lineto
stroke
newpath
61992.5 40552.2 moveto
61992.5 40238.6 lineto
stroke
newpath
61835.7 40395.4 moveto
62149.3 40395.4 lineto
stroke
newpath
66225.5 75513.4 moveto
66225.5 75199.8 lineto
stroke
newpath
66068.7 75356.6 moveto
66382.2 75356.6 lineto
stroke
newpath
66225.5 73475.3 moveto
66225.5 73161.7 lineto
stroke
newpath
66068.7 73318.5 moveto
66382.2 73318.5 lineto
stroke
newpath
66225.5 70810.1 moveto
66225.5 70496.5 lineto
stroke
newpath
66068.7 70653.3 moveto
66382.2 70653.3 lineto
stroke
newpath
66225.5 68772 moveto
66225.5 68458.4 lineto
stroke
newpath
66068.7 68615.2 moveto
66382.2 68615.2 lineto
stroke
newpath
66225.5 66106.8 moveto
66225.5 65793.2 lineto
stroke
newpath
66068.7 65950 moveto
66382.2 65950 lineto
stroke
newpath
66225.5 64068.7 moveto
66225.5 63755.1 lineto
stroke
newpath
66068.7 63911.9 moveto
66382.2 63911.9 lineto
stroke
newpath
66225.5 61403.5 moveto
66225.5 61089.9 lineto
stroke
newpath
66068.7 61246.7 moveto
66382.2 61246.7 lineto
stroke
newpath
66225.5 59365.4 moveto
66225.5 59051.8 lineto
stroke
newpath
66068.7 59208.6 moveto
66382.2 59208.6 lineto
stroke
newpath
66225.5 56700.2 moveto
66225.5 56386.6 lineto
stroke
newpath
66068.7 56543.4 moveto
66382.2 56543.4 lineto
stroke
newpath
66225.5 54662.1 moveto
66225.5 54348.5 lineto
stroke
newpath
66068.7 54505.3 moveto
66382.2 54505.3 lineto
stroke
newpath
66225.5 51996.9 moveto
66225.5 51683.3 lineto
stroke
newpath
66068.7 51840.1 moveto
66382.2 51840.1 lineto
stroke
newpath
66225.5 49958.8 moveto
66225.5 49645.2 lineto
stroke
newpath
66068.7 49802 moveto
66382.2 49802 lineto
stroke
newpath
66225.5 47293.6 moveto
66225.5 46980 lineto
stroke
newpath
66068.7 47136.8 moveto
66382.2 47136.8 lineto
stroke
newpath
66225.5 45255.5 moveto
66225.5 44941.9 lineto
stroke
newpath
66068.7 45098.7 moveto
66382.2 45098.7 lineto
stroke
newpath
66225.5 42590.3 moveto
66225.5 42276.7 lineto
stroke
newpath
66068.7 42433.5 moveto
66382.2 42433.5 lineto
stroke
newpath
66225.5 40552.2 moveto
66225.5 40238.6 lineto
stroke
newpath
66068.7 40395.4 moveto
66382.2 40395.4 lineto
stroke
newpath
67636.4 75513.4 moveto
67636.4 75199.8 lineto
stroke
newpath
67479.7 75356.6 moveto
67793.2 75356.6 lineto
stroke
newpath
67636.4 73475.3 moveto
67636.4 73161.7 lineto
stroke
newpath
67479.7 73318.5 moveto
67793.2 73318.5 lineto
stroke
newpath
67636.4 70810.1 moveto
67636.4 70496.5 lineto
stroke
newpath
67479.7 70653.3 moveto
67793.2 70653.3 lineto
stroke
newpath
67636.4 68772 moveto
67636.4 68458.4 lineto
stroke
newpath
67479.7 68615.2 moveto
67793.2 68615.2 lineto
stroke
newpath
67636.4 66106.8 moveto
67636.4 65793.2 lineto
stroke
newpath
67479.7 65950 moveto
67793.2 65950 lineto
stroke
newpath
67636.4 64068.7 moveto
67636.4 63755.1 lineto
stroke
newpath
67479.7 63911.9 moveto
67793.2 63911.9 lineto
stroke
newpath
67636.4 61403.5 moveto
67636.4 61089.9 lineto
stroke
newpath
67479.7 61246.7 moveto
67793.2 61246.7 lineto
stroke
newpath
67636.4 59365.4 moveto
67636.4 59051.8 lineto
stroke
newpath
67479.7 59208.6 moveto
67793.2 59208.6 lineto
stroke
newpath
67636.4 56700.2 moveto
67636.4 56386.6 lineto
stroke
newpath
67479.7 56543.4 moveto
67793.2 56543.4 lineto
stroke
newpath
67636.4 54662.1 moveto
67636.4 54348.5 lineto
stroke
newpath
67479.7 54505.3 moveto
67793.2 54505.3 lineto
stroke
newpath
67636.4 51996.9 moveto
67636.4 51683.3 lineto
stroke
newpath
67479.7 51840.1 moveto
67793.2 51840.1 lineto
stroke
newpath
67636.4 49958.8 moveto
67636.4 49645.2 lineto
stroke
newpath
67479.7 49802 moveto
67793.2 49802 lineto
stroke
newpath
67636.4 47293.6 moveto
67636.4 46980 lineto
stroke
newpath
67479.7 47136.8 moveto
67793.2 47136.8 lineto
stroke
newpath
67636.4 45255.5 moveto
67636.4 44941.9 lineto
stroke
newpath
67479.7 45098.7 moveto
67793.2 45098.7 lineto
stroke
newpath
67636.4 42590.3 moveto
67636.4 42276.7 lineto
stroke
newpath
67479.7 42433.5 moveto
67793.2 42433.5 lineto
stroke
newpath
67636.4 40552.2 moveto
67636.4 40238.6 lineto
stroke
newpath
67479.7 40395.4 moveto
67793.2 40395.4 lineto
stroke
newpath
71869.4 75513.4 moveto
71869.4 75199.8 lineto
stroke
newpath
71712.6 75356.6 moveto
72026.2 75356.6 lineto
stroke
newpath
71869.4 73475.3 moveto
71869.4 73161.7 lineto
stroke
newpath
71712.6 73318.5 moveto
72026.2 73318.5 lineto
stroke
newpath
71869.4 70810.1 moveto
71869.4 70496.5 lineto
stroke
newpath
71712.6 70653.3 moveto
72026.2 70653.3 lineto
stroke
newpath
71869.4 68772 moveto
71869.4 68458.4 lineto
stroke
newpath
71712.6 68615.2 moveto
72026.2 68615.2 lineto
stroke
newpath
71869.4 66106.8 moveto
71869.4 65793.2 lineto
stroke
newpath
71712.6 65950 moveto
72026.2 65950 lineto
stroke
newpath
71869.4 64068.7 moveto
71869.4 63755.1 lineto
stroke
newpath
71712.6 63911.9 moveto
72026.2 63911.9 lineto
stroke
newpath
71869.4 61403.5 moveto
71869.4 61089.9 lineto
stroke
newpath
71712.6 61246.7 moveto
72026.2 61246.7 lineto
stroke
newpath
71869.4 59365.4 moveto
71869.4 59051.8 lineto
stroke
newpath
71712.6 59208.6 moveto
72026.2 59208.6 lineto
stroke
newpath
71869.4 56700.2 moveto
71869.4 56386.6 lineto
stroke
newpath
71712.6 56543.4 moveto
72026.2 56543.4 lineto
stroke
newpath
71869.4 54662.1 moveto
71869.4 54348.5 lineto
stroke
newpath
71712.6 54505.3 moveto
72026.2 54505.3 lineto
stroke
newpath
71869.4 51996.9 moveto
71869.4 51683.3 lineto
stroke
newpath
71712.6 51840.1 moveto
72026.2 51840.1 lineto
stroke
newpath
71869.4 49958.8 moveto
71869.4 49645.2 lineto
stroke
newpath
71712.6 49802 moveto
72026.2 49802 lineto
stroke
newpath
71869.4 47293.6 moveto
71869.4 46980 lineto
stroke
newpath
71712.6 47136.8 moveto
72026.2 47136.8 lineto
stroke
newpath
71869.4 45255.5 moveto
71869.4 44941.9 lineto
stroke
newpath
71712.6 45098.7 moveto
72026.2 45098.7 lineto
stroke
newpath
71869.4 42590.3 moveto
71869.4 42276.7 lineto
stroke
newpath
71712.6 42433.5 moveto
72026.2 42433.5 lineto
stroke
newpath
71869.4 40552.2 moveto
71869.4 40238.6 lineto
stroke
newpath
71712.6 40395.4 moveto
72026.2 40395.4 lineto
stroke
newpath
73280.4 75513.4 moveto
73280.4 75199.8 lineto
stroke
newpath
73123.6 75356.6 moveto
73437.2 75356.6 lineto
stroke
newpath
73280.4 73475.3 moveto
73280.4 73161.7 lineto
stroke
newpath
73123.6 73318.5 moveto
73437.2 73318.5 lineto
stroke
newpath
73280.4 70810.1 moveto
73280.4 70496.5 lineto
stroke
newpath
73123.6 70653.3 moveto
73437.2 70653.3 lineto
stroke
newpath
73280.4 68772 moveto
73280.4 68458.4 lineto
stroke
newpath
73123.6 68615.2 moveto
73437.2 68615.2 lineto
stroke
newpath
73280.4 66106.8 moveto
73280.4 65793.2 lineto
stroke
newpath
73123.6 65950 moveto
73437.2 65950 lineto
stroke
newpath
73280.4 64068.7 moveto
73280.4 63755.1 lineto
stroke
newpath
73123.6 63911.9 moveto
73437.2 63911.9 lineto
stroke
newpath
73280.4 61403.5 moveto
73280.4 61089.9 lineto
stroke
newpath
73123.6 61246.7 moveto
73437.2 61246.7 lineto
stroke
newpath
73280.4 59365.4 moveto
73280.4 59051.8 lineto
stroke
newpath
73123.6 59208.6 moveto
73437.2 59208.6 lineto
stroke
newpath
73280.4 56700.2 moveto
73280.4 56386.6 lineto
stroke
newpath
73123.6 56543.4 moveto
73437.2 56543.4 lineto
stroke
newpath
73280.4 54662.1 moveto
73280.4 54348.5 lineto
stroke
newpath
73123.6 54505.3 moveto
73437.2 54505.3 lineto
stroke
newpath
73280.4 51996.9 moveto
73280.4 51683.3 lineto
stroke
newpath
73123.6 51840.1 moveto
73437.2 51840.1 lineto
stroke
newpath
73280.4 49958.8 moveto
73280.4 49645.2 lineto
stroke
newpath
73123.6 49802 moveto
73437.2 49802 lineto
stroke
newpath
73280.4 47293.6 moveto
73280.4 46980 lineto
stroke
newpath
73123.6 47136.8 moveto
73437.2 47136.8 lineto
stroke
newpath
73280.4 45255.5 moveto
73280.4 44941.9 lineto
stroke
newpath
73123.6 45098.7 moveto
73437.2 45098.7 lineto
stroke
newpath
73280.4 42590.3 moveto
73280.4 42276.7 lineto
stroke
newpath
73123.6 42433.5 moveto
73437.2 42433.5 lineto
stroke
newpath
73280.4 40552.2 moveto
73280.4 40238.6 lineto
stroke
newpath
73123.6 40395.4 moveto
73437.2 40395.4 lineto
stroke
newpath
77513.4 75513.4 moveto
77513.4 75199.8 lineto
stroke
newpath
77356.6 75356.6 moveto
77670.2 75356.6 lineto
stroke
newpath
77513.4 73475.3 moveto
77513.4 73161.7 lineto
stroke
newpath
77356.6 73318.5 moveto
77670.2 73318.5 lineto
stroke
newpath
77513.4 70810.1 moveto
77513.4 70496.5 lineto
stroke
newpath
77356.6 70653.3 moveto
77670.2 70653.3 lineto
stroke
newpath
77513.4 68772 moveto
77513.4 68458.4 lineto
stroke
newpath
77356.6 68615.2 moveto
77670.2 68615.2 lineto
stroke
newpath
77513.4 66106.8 moveto
77513.4 65793.2 lineto
stroke
newpath
77356.6 65950 moveto
77670.2 65950 lineto
stroke
newpath
77513.4 64068.7 moveto
77513.4 63755.1 lineto
stroke
newpath
77356.6 63911.9 moveto
77670.2 63911.9 lineto
stroke
newpath
77513.4 61403.5 moveto
77513.4 61089.9 lineto
stroke
newpath
77356.6 61246.7 moveto
77670.2 61246.7 lineto
stroke
newpath
77513.4 59365.4 moveto
77513.4 59051.8 lineto
stroke
newpath
77356.6 59208.6 moveto
77670.2 59208.6 lineto
stroke
newpath
77513.4 56700.2 moveto
77513.4 56386.6 lineto
stroke
newpath
77356.6 56543.4 moveto
77670.2 56543.4 lineto
stroke
newpath
77513.4 54662.1 moveto
77513.4 54348.5 lineto
stroke
newpath
77356.6 54505.3 moveto
77670.2 54505.3 lineto
stroke
newpath
77513.4 51996.9 moveto
77513.4 51683.3 lineto
stroke
newpath
77356.6 51840.1 moveto
77670.2 51840.1 lineto
stroke
newpath
77513.4 49958.8 moveto
77513.4 49645.2 lineto
stroke
newpath
77356.6 49802 moveto
77670.2 49802 lineto
stroke
newpath
77513.4 47293.6 moveto
77513.4 46980 lineto
stroke
newpath
77356.6 47136.8 moveto
77670.2 47136.8 lineto
stroke
newpath
77513.4 45255.5 moveto
77513.4 44941.9 lineto
stroke
newpath
77356.6 45098.7 moveto
77670.2 45098.7 lineto
stroke
newpath
77513.4 42590.3 moveto
77513.4 42276.7 lineto
stroke
newpath
77356.6 42433.5 moveto
77670.2 42433.5 lineto
stroke
newpath
77513.4 40552.2 moveto
77513.4 40238.6 lineto
stroke
newpath
77356.6 40395.4 moveto
77670.2 40395.4 lineto
stroke
newpath
78924.4 75513.4 moveto
78924.4 75199.8 lineto
stroke
newpath
78767.6 75356.6 moveto
79081.1 75356.6 lineto
stroke
newpath
78924.4 73475.3 moveto
78924.4 73161.7 lineto
stroke
newpath
78767.6 73318.5 moveto
79081.1 73318.5 lineto
stroke
newpath
78924.4 70810.1 moveto
78924.4 70496.5 lineto
stroke
newpath
78767.6 70653.3 moveto
79081.1 70653.3 lineto
stroke
newpath
78924.4 68772 moveto
78924.4 68458.4 lineto
stroke
newpath
78767.6 68615.2 moveto
79081.1 68615.2 lineto
stroke
newpath
78924.4 66106.8 moveto
78924.4 65793.2 lineto
stroke
newpath
78767.6 65950 moveto
79081.1 65950 lineto
stroke
newpath
78924.4 64068.7 moveto
78924.4 63755.1 lineto
stroke
newpath
78767.6 63911.9 moveto
79081.1 63911.9 lineto
stroke
newpath
78924.4 61403.5 moveto
78924.4 61089.9 lineto
stroke
newpath
78767.6 61246.7 moveto
79081.1 61246.7 lineto
stroke
newpath
78924.4 59365.4 moveto
78924.4 59051.8 lineto
stroke
newpath
78767.6 59208.6 moveto
79081.1 59208.6 lineto
stroke
newpath
78924.4 56700.2 moveto
78924.4 56386.6 lineto
stroke
newpath
78767.6 56543.4 moveto
79081.1 56543.4 lineto
stroke
newpath
78924.4 54662.1 moveto
78924.4 54348.5 lineto
stroke
newpath
78767.6 54505.3 moveto
79081.1 54505.3 lineto
stroke
newpath
78924.4 51996.9 moveto
78924.4 51683.3 lineto
stroke
newpath
78767.6 51840.1 moveto
79081.1 51840.1 lineto
stroke
newpath
78924.4 49958.8 moveto
78924.4 49645.2 lineto
stroke
newpath
78767.6 49802 moveto
79081.1 49802 lineto
stroke
newpath
78924.4 47293.6 moveto
78924.4 46980 lineto
stroke
newpath
78767.6 47136.8 moveto
79081.1 47136.8 lineto
stroke
newpath
78924.4 45255.5 moveto
78924.4 44941.9 lineto
stroke
newpath
78767.6 45098.7 moveto
79081.1 45098.7 lineto
stroke
newpath
78924.4 42590.3 moveto
78924.4 42276.7 lineto
stroke
newpath
78767.6 42433.5 moveto
79081.1 42433.5 lineto
stroke
newpath
78924.4 40552.2 moveto
78924.4 40238.6 lineto
stroke
newpath
78767.6 40395.4 moveto
79081.1 40395.4 lineto
stroke
newpath
34487.8 69781.4 moveto
34487.8 70114.2 lineto
34155 70114.2 lineto
34155 69781.4 lineto
34487.8 69781.4 lineto
poly0
newpath
34487.8 67900.1 moveto
34487.8 68232.9 lineto
34155 68232.9 lineto
34155 67900.1 lineto
34487.8 67900.1 lineto
poly0
newpath
36996.2 74171.1 moveto
36996.2 74504 lineto
36663.4 74504 lineto
36663.4 74171.1 lineto
36996.2 74171.1 lineto
poly0
newpath
36996.2 69467.8 moveto
36996.2 69800.7 lineto
36663.4 69800.7 lineto
36663.4 69467.8 lineto
36996.2 69467.8 lineto
poly0
newpath
36996.2 64764.5 moveto
36996.2 65097.4 lineto
36663.4 65097.4 lineto
36663.4 64764.5 lineto
36996.2 64764.5 lineto
poly0
newpath
36996.2 60061.2 moveto
36996.2 60394.1 lineto
36663.4 60394.1 lineto
36663.4 60061.2 lineto
36996.2 60061.2 lineto
poly0
newpath
36996.2 55357.9 moveto
36996.2 55690.8 lineto
36663.4 55690.8 lineto
36663.4 55357.9 lineto
36996.2 55357.9 lineto
poly0
newpath
36996.2 50654.6 moveto
36996.2 50987.5 lineto
36663.4 50987.5 lineto
36663.4 50654.6 lineto
36996.2 50654.6 lineto
poly0
newpath
36996.2 45951.3 moveto
36996.2 46284.2 lineto
36663.4 46284.2 lineto
36663.4 45951.3 lineto
36996.2 45951.3 lineto
poly0
newpath
36996.2 41248 moveto
36996.2 41580.9 lineto
36663.4 41580.9 lineto
36663.4 41248 lineto
36996.2 41248 lineto
poly0
newpath
40758.9 74171.1 moveto
40758.9 74504 lineto
40426 74504 lineto
40426 74171.1 lineto
40758.9 74171.1 lineto
poly0
newpath
40758.9 69467.8 moveto
40758.9 69800.7 lineto
40426 69800.7 lineto
40426 69467.8 lineto
40758.9 69467.8 lineto
poly0
newpath
40758.9 64764.5 moveto
40758.9 65097.4 lineto
40426 65097.4 lineto
40426 64764.5 lineto
40758.9 64764.5 lineto
poly0
newpath
40758.9 60061.2 moveto
40758.9 60394.1 lineto
40426 60394.1 lineto
40426 60061.2 lineto
40758.9 60061.2 lineto
poly0
newpath
40758.9 55357.9 moveto
40758.9 55690.8 lineto
40426 55690.8 lineto
40426 55357.9 lineto
40758.9 55357.9 lineto
poly0
newpath
40758.9 50654.6 moveto
40758.9 50987.5 lineto
40426 50987.5 lineto
40426 50654.6 lineto
40758.9 50654.6 lineto
poly0
newpath
40758.9 45951.3 moveto
40758.9 46284.2 lineto
40426 46284.2 lineto
40426 45951.3 lineto
40758.9 45951.3 lineto
poly0
newpath
40758.9 41248 moveto
40758.9 41580.9 lineto
40426 41580.9 lineto
40426 41248 lineto
40758.9 41248 lineto
poly0
newpath
42640.2 74171.1 moveto
42640.2 74504 lineto
42307.4 74504 lineto
42307.4 74171.1 lineto
42640.2 74171.1 lineto
poly0
newpath
42640.2 69467.8 moveto
42640.2 69800.7 lineto
42307.4 69800.7 lineto
42307.4 69467.8 lineto
42640.2 69467.8 lineto
poly0
newpath
42640.2 64764.5 moveto
42640.2 65097.4 lineto
42307.4 65097.4 lineto
42307.4 64764.5 lineto
42640.2 64764.5 lineto
poly0
newpath
42640.2 60061.2 moveto
42640.2 60394.1 lineto
42307.4 60394.1 lineto
42307.4 60061.2 lineto
42640.2 60061.2 lineto
poly0
newpath
42640.2 55357.9 moveto
42640.2 55690.8 lineto
42307.4 55690.8 lineto
42307.4 55357.9 lineto
42640.2 55357.9 lineto
poly0
newpath
42640.2 50654.6 moveto
42640.2 50987.5 lineto
42307.4 50987.5 lineto
42307.4 50654.6 lineto
42640.2 50654.6 lineto
poly0
newpath
42640.2 45951.3 moveto
42640.2 46284.2 lineto
42307.4 46284.2 lineto
42307.4 45951.3 lineto
42640.2 45951.3 lineto
poly0
newpath
42640.2 41248 moveto
42640.2 41580.9 lineto
42307.4 41580.9 lineto
42307.4 41248 lineto
42640.2 41248 lineto
poly0
newpath
46402.8 74171.1 moveto
46402.8 74504 lineto
46070 74504 lineto
46070 74171.1 lineto
46402.8 74171.1 lineto
poly0
newpath
46402.8 69467.8 moveto
46402.8 69800.7 lineto
46070 69800.7 lineto
46070 69467.8 lineto
46402.8 69467.8 lineto
poly0
newpath
46402.8 64764.5 moveto
46402.8 65097.4 lineto
46070 65097.4 lineto
46070 64764.5 lineto
46402.8 64764.5 lineto
poly0
newpath
46402.8 60061.2 moveto
46402.8 60394.1 lineto
46070 60394.1 lineto
46070 60061.2 lineto
46402.8 60061.2 lineto
poly0
newpath
46402.8 55357.9 moveto
46402.8 55690.8 lineto
46070 55690.8 lineto
46070 55357.9 lineto
46402.8 55357.9 lineto
poly0
newpath
46402.8 50654.6 moveto
46402.8 50987.5 lineto
46070 50987.5 lineto
46070 50654.6 lineto
46402.8 50654.6 lineto
poly0
newpath
46402.8 45951.3 moveto
46402.8 46284.2 lineto
46070 46284.2 lineto
46070 45951.3 lineto
46402.8 45951.3 lineto
poly0
newpath
46402.8 41248 moveto
46402.8 41580.9 lineto
46070 41580.9 lineto
46070 41248 lineto
46402.8 41248 lineto
poly0
newpath
48284.1 74171.1 moveto
48284.1 74504 lineto
47951.3 74504 lineto
47951.3 74171.1 lineto
48284.1 74171.1 lineto
poly0
newpath
48284.1 69467.8 moveto
48284.1 69800.7 lineto
47951.3 69800.7 lineto
47951.3 69467.8 lineto
48284.1 69467.8 lineto
poly0
newpath
48284.1 64764.5 moveto
48284.1 65097.4 lineto
47951.3 65097.4 lineto
47951.3 64764.5 lineto
48284.1 64764.5 lineto
poly0
newpath
48284.1 60061.2 moveto
48284.1 60394.1 lineto
47951.3 60394.1 lineto
47951.3 60061.2 lineto
48284.1 60061.2 lineto
poly0
newpath
48284.1 55357.9 moveto
48284.1 55690.8 lineto
47951.3 55690.8 lineto
47951.3 55357.9 lineto
48284.1 55357.9 lineto
poly0
newpath
48284.1 50654.6 moveto
48284.1 50987.5 lineto
47951.3 50987.5 lineto
47951.3 50654.6 lineto
48284.1 50654.6 lineto
poly0
newpath
48284.1 45951.3 moveto
48284.1 46284.2 lineto
47951.3 46284.2 lineto
47951.3 45951.3 lineto
48284.1 45951.3 lineto
poly0
newpath
48284.1 41248 moveto
48284.1 41580.9 lineto
47951.3 41580.9 lineto
47951.3 41248 lineto
48284.1 41248 lineto
poly0
newpath
52046.8 74171.1 moveto
52046.8 74504 lineto
51714 74504 lineto
51714 74171.1 lineto
52046.8 74171.1 lineto
poly0
newpath
52046.8 69467.8 moveto
52046.8 69800.7 lineto
51714 69800.7 lineto
51714 69467.8 lineto
52046.8 69467.8 lineto
poly0
newpath
52046.8 64764.5 moveto
52046.8 65097.4 lineto
51714 65097.4 lineto
51714 64764.5 lineto
52046.8 64764.5 lineto
poly0
newpath
52046.8 60061.2 moveto
52046.8 60394.1 lineto
51714 60394.1 lineto
51714 60061.2 lineto
52046.8 60061.2 lineto
poly0
newpath
52046.8 55357.9 moveto
52046.8 55690.8 lineto
51714 55690.8 lineto
51714 55357.9 lineto
52046.8 55357.9 lineto
poly0
newpath
52046.8 50654.6 moveto
52046.8 50987.5 lineto
51714 50987.5 lineto
51714 50654.6 lineto
52046.8 50654.6 lineto
poly0
newpath
52046.8 45951.3 moveto
52046.8 46284.2 lineto
51714 46284.2 lineto
51714 45951.3 lineto
52046.8 45951.3 lineto
poly0
newpath
52046.8 41248 moveto
52046.8 41580.9 lineto
51714 41580.9 lineto
51714 41248 lineto
52046.8 41248 lineto
poly0
newpath
53928.1 74171.1 moveto
53928.1 74504 lineto
53595.3 74504 lineto
53595.3 74171.1 lineto
53928.1 74171.1 lineto
poly0
newpath
53928.1 69467.8 moveto
53928.1 69800.7 lineto
53595.3 69800.7 lineto
53595.3 69467.8 lineto
53928.1 69467.8 lineto
poly0
newpath
53928.1 64764.5 moveto
53928.1 65097.4 lineto
53595.3 65097.4 lineto
53595.3 64764.5 lineto
53928.1 64764.5 lineto
poly0
newpath
53928.1 60061.2 moveto
53928.1 60394.1 lineto
53595.3 60394.1 lineto
53595.3 60061.2 lineto
53928.1 60061.2 lineto
poly0
newpath
53928.1 55357.9 moveto
53928.1 55690.8 lineto
53595.3 55690.8 lineto
53595.3 55357.9 lineto
53928.1 55357.9 lineto
poly0
newpath
53928.1 50654.6 moveto
53928.1 50987.5 lineto
53595.3 50987.5 lineto
53595.3 50654.6 lineto
53928.1 50654.6 lineto
poly0
newpath
53928.1 45951.3 moveto
53928.1 46284.2 lineto
53595.3 46284.2 lineto
53595.3 45951.3 lineto
53928.1 45951.3 lineto
poly0
newpath
53928.1 41248 moveto
53928.1 41580.9 lineto
53595.3 41580.9 lineto
53595.3 41248 lineto
53928.1 41248 lineto
poly0
newpath
57690.8 74171.1 moveto
57690.8 74504 lineto
57357.9 74504 lineto
57357.9 74171.1 lineto
57690.8 74171.1 lineto
poly0
newpath
57690.8 69467.8 moveto
57690.8 69800.7 lineto
57357.9 69800.7 lineto
57357.9 69467.8 lineto
57690.8 69467.8 lineto
poly0
newpath
57690.8 64764.5 moveto
57690.8 65097.4 lineto
57357.9 65097.4 lineto
57357.9 64764.5 lineto
57690.8 64764.5 lineto
poly0
newpath
57690.8 60061.2 moveto
57690.8 60394.1 lineto
57357.9 60394.1 lineto
57357.9 60061.2 lineto
57690.8 60061.2 lineto
poly0
newpath
57690.8 55357.9 moveto
57690.8 55690.8 lineto
57357.9 55690.8 lineto
57357.9 55357.9 lineto
57690.8 55357.9 lineto
poly0
newpath
57690.8 50654.6 moveto
57690.8 50987.5 lineto
57357.9 50987.5 lineto
57357.9 50654.6 lineto
57690.8 50654.6 lineto
poly0
newpath
57690.8 45951.3 moveto
57690.8 46284.2 lineto
57357.9 46284.2 lineto
57357.9 45951.3 lineto
57690.8 45951.3 lineto
poly0
newpath
57690.8 41248 moveto
57690.8 41580.9 lineto
57357.9 41580.9 lineto
57357.9 41248 lineto
57690.8 41248 lineto
poly0
newpath
59572.1 74171.1 moveto
59572.1 74504 lineto
59239.2 74504 lineto
59239.2 74171.1 lineto
59572.1 74171.1 lineto
poly0
newpath
59572.1 69467.8 moveto
59572.1 69800.7 lineto
59239.2 69800.7 lineto
59239.2 69467.8 lineto
59572.1 69467.8 lineto
poly0
newpath
59572.1 64764.5 moveto
59572.1 65097.4 lineto
59239.2 65097.4 lineto
59239.2 64764.5 lineto
59572.1 64764.5 lineto
poly0
newpath
59572.1 60061.2 moveto
59572.1 60394.1 lineto
59239.2 60394.1 lineto
59239.2 60061.2 lineto
59572.1 60061.2 lineto
poly0
newpath
59572.1 55357.9 moveto
59572.1 55690.8 lineto
59239.2 55690.8 lineto
59239.2 55357.9 lineto
59572.1 55357.9 lineto
poly0
newpath
59572.1 50654.6 moveto
59572.1 50987.5 lineto
59239.2 50987.5 lineto
59239.2 50654.6 lineto
59572.1 50654.6 lineto
poly0
newpath
59572.1 45951.3 moveto
59572.1 46284.2 lineto
59239.2 46284.2 lineto
59239.2 45951.3 lineto
59572.1 45951.3 lineto
poly0
newpath
59572.1 41248 moveto
59572.1 41580.9 lineto
59239.2 41580.9 lineto
59239.2 41248 lineto
59572.1 41248 lineto
poly0
newpath
63334.7 74171.1 moveto
63334.7 74504 lineto
63001.9 74504 lineto
63001.9 74171.1 lineto
63334.7 74171.1 lineto
poly0
newpath
63334.7 69467.8 moveto
63334.7 69800.7 lineto
63001.9 69800.7 lineto
63001.9 69467.8 lineto
63334.7 69467.8 lineto
poly0
newpath
63334.7 64764.5 moveto
63334.7 65097.4 lineto
63001.9 65097.4 lineto
63001.9 64764.5 lineto
63334.7 64764.5 lineto
poly0
newpath
63334.7 60061.2 moveto
63334.7 60394.1 lineto
63001.9 60394.1 lineto
63001.9 60061.2 lineto
63334.7 60061.2 lineto
poly0
newpath
63334.7 55357.9 moveto
63334.7 55690.8 lineto
63001.9 55690.8 lineto
63001.9 55357.9 lineto
63334.7 55357.9 lineto
poly0
newpath
63334.7 50654.6 moveto
63334.7 50987.5 lineto
63001.9 50987.5 lineto
63001.9 50654.6 lineto
63334.7 50654.6 lineto
poly0
newpath
63334.7 45951.3 moveto
63334.7 46284.2 lineto
63001.9 46284.2 lineto
63001.9 45951.3 lineto
63334.7 45951.3 lineto
poly0
newpath
63334.7 41248 moveto
63334.7 41580.9 lineto
63001.9 41580.9 lineto
63001.9 41248 lineto
63334.7 41248 lineto
poly0
newpath
65216 74171.1 moveto
65216 74504 lineto
64883.2 74504 lineto
64883.2 74171.1 lineto
65216 74171.1 lineto
poly0
newpath
65216 69467.8 moveto
65216 69800.7 lineto
64883.2 69800.7 lineto
64883.2 69467.8 lineto
65216 69467.8 lineto
poly0
newpath
65216 64764.5 moveto
65216 65097.4 lineto
64883.2 65097.4 lineto
64883.2 64764.5 lineto
65216 64764.5 lineto
poly0
newpath
65216 60061.2 moveto
65216 60394.1 lineto
64883.2 60394.1 lineto
64883.2 60061.2 lineto
65216 60061.2 lineto
poly0
newpath
65216 55357.9 moveto
65216 55690.8 lineto
64883.2 55690.8 lineto
64883.2 55357.9 lineto
65216 55357.9 lineto
poly0
newpath
65216 50654.6 moveto
65216 50987.5 lineto
64883.2 50987.5 lineto
64883.2 50654.6 lineto
65216 50654.6 lineto
poly0
newpath
65216 45951.3 moveto
65216 46284.2 lineto
64883.2 46284.2 lineto
64883.2 45951.3 lineto
65216 45951.3 lineto
poly0
newpath
65216 41248 moveto
65216 41580.9 lineto
64883.2 41580.9 lineto
64883.2 41248 lineto
65216 41248 lineto
poly0
newpath
68978.7 74171.1 moveto
68978.7 74504 lineto
68645.9 74504 lineto
68645.9 74171.1 lineto
68978.7 74171.1 lineto
poly0
newpath
68978.7 69467.8 moveto
68978.7 69800.7 lineto
68645.9 69800.7 lineto
68645.9 69467.8 lineto
68978.7 69467.8 lineto
poly0
newpath
68978.7 64764.5 moveto
68978.7 65097.4 lineto
68645.9 65097.4 lineto
68645.9 64764.5 lineto
68978.7 64764.5 lineto
poly0
newpath
68978.7 60061.2 moveto
68978.7 60394.1 lineto
68645.9 60394.1 lineto
68645.9 60061.2 lineto
68978.7 60061.2 lineto
poly0
newpath
68978.7 55357.9 moveto
68978.7 55690.8 lineto
68645.9 55690.8 lineto
68645.9 55357.9 lineto
68978.7 55357.9 lineto
poly0
newpath
68978.7 50654.6 moveto
68978.7 50987.5 lineto
68645.9 50987.5 lineto
68645.9 50654.6 lineto
68978.7 50654.6 lineto
poly0
newpath
68978.7 45951.3 moveto
68978.7 46284.2 lineto
68645.9 46284.2 lineto
68645.9 45951.3 lineto
68978.7 45951.3 lineto
poly0
newpath
68978.7 41248 moveto
68978.7 41580.9 lineto
68645.9 41580.9 lineto
68645.9 41248 lineto
68978.7 41248 lineto
poly0
newpath
70860 74171.1 moveto
70860 74504 lineto
70527.2 74504 lineto
70527.2 74171.1 lineto
70860 74171.1 lineto
poly0
newpath
70860 69467.8 moveto
70860 69800.7 lineto
70527.2 69800.7 lineto
70527.2 69467.8 lineto
70860 69467.8 lineto
poly0
newpath
70860 64764.5 moveto
70860 65097.4 lineto
70527.2 65097.4 lineto
70527.2 64764.5 lineto
70860 64764.5 lineto
poly0
newpath
70860 60061.2 moveto
70860 60394.1 lineto
70527.2 60394.1 lineto
70527.2 60061.2 lineto
70860 60061.2 lineto
poly0
newpath
70860 55357.9 moveto
70860 55690.8 lineto
70527.2 55690.8 lineto
70527.2 55357.9 lineto
70860 55357.9 lineto
poly0
newpath
70860 50654.6 moveto
70860 50987.5 lineto
70527.2 50987.5 lineto
70527.2 50654.6 lineto
70860 50654.6 lineto
poly0
newpath
70860 45951.3 moveto
70860 46284.2 lineto
70527.2 46284.2 lineto
70527.2 45951.3 lineto
70860 45951.3 lineto
poly0
newpath
70860 41248 moveto
70860 41580.9 lineto
70527.2 41580.9 lineto
70527.2 41248 lineto
70860 41248 lineto
poly0
newpath
74622.6 74171.1 moveto
74622.6 74504 lineto
74289.8 74504 lineto
74289.8 74171.1 lineto
74622.6 74171.1 lineto
poly0
newpath
74622.6 69467.8 moveto
74622.6 69800.7 lineto
74289.8 69800.7 lineto
74289.8 69467.8 lineto
74622.6 69467.8 lineto
poly0
newpath
74622.6 64764.5 moveto
74622.6 65097.4 lineto
74289.8 65097.4 lineto
74289.8 64764.5 lineto
74622.6 64764.5 lineto
poly0
newpath
74622.6 60061.2 moveto
74622.6 60394.1 lineto
74289.8 60394.1 lineto
74289.8 60061.2 lineto
74622.6 60061.2 lineto
poly0
newpath
74622.6 55357.9 moveto
74622.6 55690.8 lineto
74289.8 55690.8 lineto
74289.8 55357.9 lineto
74622.6 55357.9 lineto
poly0
newpath
74622.6 50654.6 moveto
74622.6 50987.5 lineto
74289.8 50987.5 lineto
74289.8 50654.6 lineto
74622.6 50654.6 lineto
poly0
newpath
74622.6 45951.3 moveto
74622.6 46284.2 lineto
74289.8 46284.2 lineto
74289.8 45951.3 lineto
74622.6 45951.3 lineto
poly0
newpath
74622.6 41248 moveto
74622.6 41580.9 lineto
74289.8 41580.9 lineto
74289.8 41248 lineto
74622.6 41248 lineto
poly0
newpath
76504 74171.1 moveto
76504 74504 lineto
76171.1 74504 lineto
76171.1 74171.1 lineto
76504 74171.1 lineto
poly0
newpath
76504 69467.8 moveto
76504 69800.7 lineto
76171.1 69800.7 lineto
76171.1 69467.8 lineto
76504 69467.8 lineto
poly0
newpath
76504 64764.5 moveto
76504 65097.4 lineto
76171.1 65097.4 lineto
76171.1 64764.5 lineto
76504 64764.5 lineto
poly0
newpath
76504 60061.2 moveto
76504 60394.1 lineto
76171.1 60394.1 lineto
76171.1 60061.2 lineto
76504 60061.2 lineto
poly0
newpath
76504 55357.9 moveto
76504 55690.8 lineto
76171.1 55690.8 lineto
76171.1 55357.9 lineto
76504 55357.9 lineto
poly0
newpath
76504 50654.6 moveto
76504 50987.5 lineto
76171.1 50987.5 lineto
76171.1 50654.6 lineto
76504 50654.6 lineto
poly0
newpath
76504 45951.3 moveto
76504 46284.2 lineto
76171.1 46284.2 lineto
76171.1 45951.3 lineto
76504 45951.3 lineto
poly0
newpath
76504 41248 moveto
76504 41580.9 lineto
76171.1 41580.9 lineto
76171.1 41248 lineto
76504 41248 lineto
poly0
newpath
80266.6 74171.1 moveto
80266.6 74504 lineto
79933.8 74504 lineto
79933.8 74171.1 lineto
80266.6 74171.1 lineto
poly0
newpath
80266.6 69467.8 moveto
80266.6 69800.7 lineto
79933.8 69800.7 lineto
79933.8 69467.8 lineto
80266.6 69467.8 lineto
poly0
newpath
80266.6 64764.5 moveto
80266.6 65097.4 lineto
79933.8 65097.4 lineto
79933.8 64764.5 lineto
80266.6 64764.5 lineto
poly0
newpath
80266.6 60061.2 moveto
80266.6 60394.1 lineto
79933.8 60394.1 lineto
79933.8 60061.2 lineto
80266.6 60061.2 lineto
poly0
newpath
80266.6 55357.9 moveto
80266.6 55690.8 lineto
79933.8 55690.8 lineto
79933.8 55357.9 lineto
80266.6 55357.9 lineto
poly0
newpath
80266.6 50654.6 moveto
80266.6 50987.5 lineto
79933.8 50987.5 lineto
79933.8 50654.6 lineto
80266.6 50654.6 lineto
poly0
newpath
80266.6 45951.3 moveto
80266.6 46284.2 lineto
79933.8 46284.2 lineto
79933.8 45951.3 lineto
80266.6 45951.3 lineto
poly0
newpath
80266.6 41248 moveto
80266.6 41580.9 lineto
79933.8 41580.9 lineto
79933.8 41248 lineto
80266.6 41248 lineto
poly0
118.11 setlinewidth
0 0 0 setrgbcolor
0 0 0 setrgbcolor
newpath
33552 35175.5 moveto
33552 36356.6 lineto
33833.3 36356.6 lineto
34002 36300.3 lineto
34114.5 36187.9 lineto
34170.7 36075.4 lineto
34227 35850.4 lineto
34227 35681.7 lineto
34170.7 35456.7 lineto
34114.5 35344.2 lineto
34002 35231.7 lineto
33833.3 35175.5 lineto
33552 35175.5 lineto
stroke
newpath
34733.1 35175.5 moveto
34733.1 35962.9 lineto
stroke
newpath
34733.1 35737.9 moveto
34789.4 35850.4 lineto
34845.6 35906.6 lineto
34958.1 35962.9 lineto
35070.6 35962.9 lineto
stroke
newpath
35464.3 35175.5 moveto
35464.3 35962.9 lineto
stroke
newpath
35464.3 36356.6 moveto
35408.1 36300.3 lineto
35464.3 36244.1 lineto
35520.5 36300.3 lineto
35464.3 36356.6 lineto
35464.3 36244.1 lineto
stroke
newpath
36195.5 35175.5 moveto
36083 35231.7 lineto
36026.7 35344.2 lineto
36026.7 36356.6 lineto
stroke
newpath
36814.1 35175.5 moveto
36701.7 35231.7 lineto
36645.4 35344.2 lineto
36645.4 36356.6 lineto
stroke
newpath
38164 35175.5 moveto
38164 36356.6 lineto
38557.7 35512.9 lineto
38951.4 36356.6 lineto
38951.4 35175.5 lineto
stroke
newpath
40020 35175.5 moveto
40020 35794.2 lineto
39963.7 35906.6 lineto
39851.3 35962.9 lineto
39626.3 35962.9 lineto
39513.8 35906.6 lineto
stroke
newpath
40020 35231.7 moveto
39907.5 35175.5 lineto
39626.3 35175.5 lineto
39513.8 35231.7 lineto
39457.6 35344.2 lineto
39457.6 35456.7 lineto
39513.8 35569.2 lineto
39626.3 35625.4 lineto
39907.5 35625.4 lineto
40020 35681.7 lineto
stroke
newpath
40582.4 35962.9 moveto
40582.4 34781.8 lineto
stroke
newpath
40582.4 35906.6 moveto
40694.9 35962.9 lineto
40919.9 35962.9 lineto
41032.4 35906.6 lineto
41088.6 35850.4 lineto
41144.8 35737.9 lineto
41144.8 35400.5 lineto
41088.6 35288 lineto
41032.4 35231.7 lineto
40919.9 35175.5 lineto
40694.9 35175.5 lineto
40582.4 35231.7 lineto
stroke
newpath
41651 35288 moveto
41707.3 35231.7 lineto
41651 35175.5 lineto
41594.8 35231.7 lineto
41651 35288 lineto
41651 35175.5 lineto
stroke
newpath
41651 35906.6 moveto
41707.3 35850.4 lineto
41651 35794.2 lineto
41594.8 35850.4 lineto
41651 35906.6 lineto
41651 35794.2 lineto
stroke
newpath
32299 33292.2 moveto
32424.4 33166.8 lineto
stroke
newpath
32424.4 33292.2 moveto
32299 33166.8 lineto
stroke
0 0 0 setrgbcolor
0 0 0 setrgbcolor
newpath
33777 33876.3 moveto
33889.5 33876.3 lineto
34002 33820 lineto
34058.2 33763.8 lineto
34114.5 33651.3 lineto
34170.7 33426.3 lineto
34170.7 33145.1 lineto
34114.5 32920.1 lineto
34058.2 32807.7 lineto
34002 32751.4 lineto
33889.5 32695.2 lineto
33777 32695.2 lineto
33664.5 32751.4 lineto
33608.3 32807.7 lineto
33552 32920.1 lineto
33495.8 33145.1 lineto
33495.8 33426.3 lineto
33552 33651.3 lineto
33608.3 33763.8 lineto
33664.5 33820 lineto
33777 33876.3 lineto
stroke
newpath
34676.9 32807.7 moveto
34733.1 32751.4 lineto
34676.9 32695.2 lineto
34620.7 32751.4 lineto
34676.9 32807.7 lineto
34676.9 32695.2 lineto
stroke
newpath
35745.5 33482.6 moveto
35745.5 32695.2 lineto
stroke
newpath
35464.3 33932.5 moveto
35183.1 33088.9 lineto
35914.2 33088.9 lineto
stroke
newpath
36589.2 33876.3 moveto
36701.7 33876.3 lineto
36814.1 33820 lineto
36870.4 33763.8 lineto
36926.6 33651.3 lineto
36982.9 33426.3 lineto
36982.9 33145.1 lineto
36926.6 32920.1 lineto
36870.4 32807.7 lineto
36814.1 32751.4 lineto
36701.7 32695.2 lineto
36589.2 32695.2 lineto
36476.7 32751.4 lineto
36420.4 32807.7 lineto
36364.2 32920.1 lineto
36308 33145.1 lineto
36308 33426.3 lineto
36364.2 33651.3 lineto
36420.4 33763.8 lineto
36476.7 33820 lineto
36589.2 33876.3 lineto
stroke
newpath
37714 33876.3 moveto
37826.5 33876.3 lineto
37939 33820 lineto
37995.2 33763.8 lineto
38051.5 33651.3 lineto
38107.7 33426.3 lineto
38107.7 33145.1 lineto
38051.5 32920.1 lineto
37995.2 32807.7 lineto
37939 32751.4 lineto
37826.5 32695.2 lineto
37714 32695.2 lineto
37601.5 32751.4 lineto
37545.3 32807.7 lineto
37489.1 32920.1 lineto
37432.8 33145.1 lineto
37432.8 33426.3 lineto
37489.1 33651.3 lineto
37545.3 33763.8 lineto
37601.5 33820 lineto
37714 33876.3 lineto
stroke
newpath
38613.9 32695.2 moveto
38613.9 33482.6 lineto
stroke
newpath
38613.9 33370.1 moveto
38670.2 33426.3 lineto
38782.6 33482.6 lineto
38951.4 33482.6 lineto
39063.9 33426.3 lineto
39120.1 33313.8 lineto
39120.1 32695.2 lineto
stroke
newpath
39120.1 33313.8 moveto
39176.3 33426.3 lineto
39288.8 33482.6 lineto
39457.6 33482.6 lineto
39570 33426.3 lineto
39626.3 33313.8 lineto
39626.3 32695.2 lineto
stroke
newpath
40188.7 32695.2 moveto
40188.7 33482.6 lineto
stroke
newpath
40188.7 33370.1 moveto
40245 33426.3 lineto
40357.4 33482.6 lineto
40526.2 33482.6 lineto
40638.7 33426.3 lineto
40694.9 33313.8 lineto
40694.9 32695.2 lineto
stroke
newpath
40694.9 33313.8 moveto
40751.1 33426.3 lineto
40863.6 33482.6 lineto
41032.4 33482.6 lineto
41144.8 33426.3 lineto
41201.1 33313.8 lineto
41201.1 32695.2 lineto
stroke
newpath
43507.1 33932.5 moveto
42494.7 32414 lineto
stroke
newpath
45025.6 33876.3 moveto
45138.1 33876.3 lineto
45250.6 33820 lineto
45306.8 33763.8 lineto
45363.1 33651.3 lineto
45419.3 33426.3 lineto
45419.3 33145.1 lineto
45363.1 32920.1 lineto
45306.8 32807.7 lineto
45250.6 32751.4 lineto
45138.1 32695.2 lineto
45025.6 32695.2 lineto
44913.1 32751.4 lineto
44856.9 32807.7 lineto
44800.6 32920.1 lineto
44744.4 33145.1 lineto
44744.4 33426.3 lineto
44800.6 33651.3 lineto
44856.9 33763.8 lineto
44913.1 33820 lineto
45025.6 33876.3 lineto
stroke
newpath
45925.5 32807.7 moveto
45981.7 32751.4 lineto
45925.5 32695.2 lineto
45869.3 32751.4 lineto
45925.5 32807.7 lineto
45925.5 32695.2 lineto
stroke
newpath
46712.9 33876.3 moveto
46825.4 33876.3 lineto
46937.9 33820 lineto
46994.1 33763.8 lineto
47050.4 33651.3 lineto
47106.6 33426.3 lineto
47106.6 33145.1 lineto
47050.4 32920.1 lineto
46994.1 32807.7 lineto
46937.9 32751.4 lineto
46825.4 32695.2 lineto
46712.9 32695.2 lineto
46600.4 32751.4 lineto
46544.2 32807.7 lineto
46487.9 32920.1 lineto
46431.7 33145.1 lineto
46431.7 33426.3 lineto
46487.9 33651.3 lineto
46544.2 33763.8 lineto
46600.4 33820 lineto
46712.9 33876.3 lineto
stroke
newpath
48231.5 32695.2 moveto
47556.5 32695.2 lineto
stroke
newpath
47894 32695.2 moveto
47894 33876.3 lineto
47781.5 33707.5 lineto
47669 33595.1 lineto
47556.5 33538.8 lineto
stroke
newpath
49300.1 33876.3 moveto
48737.6 33876.3 lineto
48681.4 33313.8 lineto
48737.6 33370.1 lineto
48850.1 33426.3 lineto
49131.3 33426.3 lineto
49243.8 33370.1 lineto
49300.1 33313.8 lineto
49356.3 33201.4 lineto
49356.3 32920.1 lineto
49300.1 32807.7 lineto
49243.8 32751.4 lineto
49131.3 32695.2 lineto
48850.1 32695.2 lineto
48737.6 32751.4 lineto
48681.4 32807.7 lineto
stroke
newpath
49750 33876.3 moveto
50537.4 33876.3 lineto
50031.2 32695.2 lineto
stroke
newpath
50931.1 33876.3 moveto
50931.1 33651.3 lineto
stroke
newpath
51381.1 33876.3 moveto
51381.1 33651.3 lineto
stroke
newpath
53124.6 32245.2 moveto
53068.4 32301.5 lineto
52955.9 32470.2 lineto
52899.6 32582.7 lineto
52843.4 32751.4 lineto
52787.1 33032.6 lineto
52787.1 33257.6 lineto
52843.4 33538.8 lineto
52899.6 33707.5 lineto
52955.9 33820 lineto
53068.4 33988.8 lineto
53124.6 34045 lineto
stroke
newpath
54080.7 33876.3 moveto
53855.8 33876.3 lineto
53743.3 33820 lineto
53687 33763.8 lineto
53574.5 33595.1 lineto
53518.3 33370.1 lineto
53518.3 32920.1 lineto
53574.5 32807.7 lineto
53630.8 32751.4 lineto
53743.3 32695.2 lineto
53968.2 32695.2 lineto
54080.7 32751.4 lineto
54137 32807.7 lineto
54193.2 32920.1 lineto
54193.2 33201.4 lineto
54137 33313.8 lineto
54080.7 33370.1 lineto
53968.2 33426.3 lineto
53743.3 33426.3 lineto
53630.8 33370.1 lineto
53574.5 33313.8 lineto
53518.3 33201.4 lineto
stroke
newpath
55205.6 33482.6 moveto
55205.6 32695.2 lineto
stroke
newpath
54924.4 33932.5 moveto
54643.2 33088.9 lineto
55374.3 33088.9 lineto
stroke
newpath
56724.2 32695.2 moveto
56724.2 33876.3 lineto
stroke
newpath
57230.3 32695.2 moveto
57230.3 33313.8 lineto
57174.1 33426.3 lineto
57061.6 33482.6 lineto
56892.9 33482.6 lineto
56780.4 33426.3 lineto
56724.2 33370.1 lineto
stroke
newpath
57961.5 32695.2 moveto
57849 32751.4 lineto
57792.8 32807.7 lineto
57736.5 32920.1 lineto
57736.5 33257.6 lineto
57792.8 33370.1 lineto
57849 33426.3 lineto
57961.5 33482.6 lineto
58130.2 33482.6 lineto
58242.7 33426.3 lineto
58299 33370.1 lineto
58355.2 33257.6 lineto
58355.2 32920.1 lineto
58299 32807.7 lineto
58242.7 32751.4 lineto
58130.2 32695.2 lineto
57961.5 32695.2 lineto
stroke
newpath
59030.1 32695.2 moveto
58917.6 32751.4 lineto
58861.4 32863.9 lineto
58861.4 33876.3 lineto
stroke
newpath
59930 32751.4 moveto
59817.5 32695.2 lineto
59592.5 32695.2 lineto
59480.1 32751.4 lineto
59423.8 32863.9 lineto
59423.8 33313.8 lineto
59480.1 33426.3 lineto
59592.5 33482.6 lineto
59817.5 33482.6 lineto
59930 33426.3 lineto
59986.2 33313.8 lineto
59986.2 33201.4 lineto
59423.8 33088.9 lineto
stroke
newpath
60436.2 32751.4 moveto
60548.7 32695.2 lineto
60773.6 32695.2 lineto
60886.1 32751.4 lineto
60942.4 32863.9 lineto
60942.4 32920.1 lineto
60886.1 33032.6 lineto
60773.6 33088.9 lineto
60604.9 33088.9 lineto
60492.4 33145.1 lineto
60436.2 33257.6 lineto
60436.2 33313.8 lineto
60492.4 33426.3 lineto
60604.9 33482.6 lineto
60773.6 33482.6 lineto
60886.1 33426.3 lineto
stroke
newpath
61336.1 32245.2 moveto
61392.3 32301.5 lineto
61504.8 32470.2 lineto
61561 32582.7 lineto
61617.3 32751.4 lineto
61673.5 33032.6 lineto
61673.5 33257.6 lineto
61617.3 33538.8 lineto
61561 33707.5 lineto
61504.8 33820 lineto
61392.3 33988.8 lineto
61336.1 34045 lineto
stroke
32352.7 31670.4 71.6784 cir0
0 0 0 setrgbcolor
0 0 0 setrgbcolor
newpath
33777 32317.2 moveto
33889.5 32317.2 lineto
34002 32261 lineto
34058.2 32204.7 lineto
34114.5 32092.2 lineto
34170.7 31867.3 lineto
34170.7 31586.1 lineto
34114.5 31361.1 lineto
34058.2 31248.6 lineto
34002 31192.4 lineto
33889.5 31136.1 lineto
33777 31136.1 lineto
33664.5 31192.4 lineto
33608.3 31248.6 lineto
33552 31361.1 lineto
33495.8 31586.1 lineto
33495.8 31867.3 lineto
33552 32092.2 lineto
33608.3 32204.7 lineto
33664.5 32261 lineto
33777 32317.2 lineto
stroke
newpath
34676.9 31248.6 moveto
34733.1 31192.4 lineto
34676.9 31136.1 lineto
34620.7 31192.4 lineto
34676.9 31248.6 lineto
34676.9 31136.1 lineto
stroke
newpath
35745.5 31923.5 moveto
35745.5 31136.1 lineto
stroke
newpath
35464.3 32373.5 moveto
35183.1 31529.8 lineto
35914.2 31529.8 lineto
stroke
newpath
36926.6 32317.2 moveto
36364.2 32317.2 lineto
36308 31754.8 lineto
36364.2 31811 lineto
36476.7 31867.3 lineto
36757.9 31867.3 lineto
36870.4 31811 lineto
36926.6 31754.8 lineto
36982.9 31642.3 lineto
36982.9 31361.1 lineto
36926.6 31248.6 lineto
36870.4 31192.4 lineto
36757.9 31136.1 lineto
36476.7 31136.1 lineto
36364.2 31192.4 lineto
36308 31248.6 lineto
stroke
newpath
37376.6 32317.2 moveto
38164 32317.2 lineto
37657.8 31136.1 lineto
stroke
newpath
38613.9 31136.1 moveto
38613.9 31923.5 lineto
stroke
newpath
38613.9 31811 moveto
38670.2 31867.3 lineto
38782.6 31923.5 lineto
38951.4 31923.5 lineto
39063.9 31867.3 lineto
39120.1 31754.8 lineto
39120.1 31136.1 lineto
stroke
newpath
39120.1 31754.8 moveto
39176.3 31867.3 lineto
39288.8 31923.5 lineto
39457.6 31923.5 lineto
39570 31867.3 lineto
39626.3 31754.8 lineto
39626.3 31136.1 lineto
stroke
newpath
40188.7 31136.1 moveto
40188.7 31923.5 lineto
stroke
newpath
40188.7 31811 moveto
40245 31867.3 lineto
40357.4 31923.5 lineto
40526.2 31923.5 lineto
40638.7 31867.3 lineto
40694.9 31754.8 lineto
40694.9 31136.1 lineto
stroke
newpath
40694.9 31754.8 moveto
40751.1 31867.3 lineto
40863.6 31923.5 lineto
41032.4 31923.5 lineto
41144.8 31867.3 lineto
41201.1 31754.8 lineto
41201.1 31136.1 lineto
stroke
newpath
43507.1 32373.5 moveto
42494.7 30854.9 lineto
stroke
newpath
45025.6 32317.2 moveto
45138.1 32317.2 lineto
45250.6 32261 lineto
45306.8 32204.7 lineto
45363.1 32092.2 lineto
45419.3 31867.3 lineto
45419.3 31586.1 lineto
45363.1 31361.1 lineto
45306.8 31248.6 lineto
45250.6 31192.4 lineto
45138.1 31136.1 lineto
45025.6 31136.1 lineto
44913.1 31192.4 lineto
44856.9 31248.6 lineto
44800.6 31361.1 lineto
44744.4 31586.1 lineto
44744.4 31867.3 lineto
44800.6 32092.2 lineto
44856.9 32204.7 lineto
44913.1 32261 lineto
45025.6 32317.2 lineto
stroke
newpath
45925.5 31248.6 moveto
45981.7 31192.4 lineto
45925.5 31136.1 lineto
45869.3 31192.4 lineto
45925.5 31248.6 lineto
45925.5 31136.1 lineto
stroke
newpath
46712.9 32317.2 moveto
46825.4 32317.2 lineto
46937.9 32261 lineto
46994.1 32204.7 lineto
47050.4 32092.2 lineto
47106.6 31867.3 lineto
47106.6 31586.1 lineto
47050.4 31361.1 lineto
46994.1 31248.6 lineto
46937.9 31192.4 lineto
46825.4 31136.1 lineto
46712.9 31136.1 lineto
46600.4 31192.4 lineto
46544.2 31248.6 lineto
46487.9 31361.1 lineto
46431.7 31586.1 lineto
46431.7 31867.3 lineto
46487.9 32092.2 lineto
46544.2 32204.7 lineto
46600.4 32261 lineto
46712.9 32317.2 lineto
stroke
newpath
48231.5 31136.1 moveto
47556.5 31136.1 lineto
stroke
newpath
47894 31136.1 moveto
47894 32317.2 lineto
47781.5 32148.5 lineto
47669 32036 lineto
47556.5 31979.8 lineto
stroke
newpath
48906.4 31811 moveto
48793.9 31867.3 lineto
48737.6 31923.5 lineto
48681.4 32036 lineto
48681.4 32092.2 lineto
48737.6 32204.7 lineto
48793.9 32261 lineto
48906.4 32317.2 lineto
49131.3 32317.2 lineto
49243.8 32261 lineto
49300.1 32204.7 lineto
49356.3 32092.2 lineto
49356.3 32036 lineto
49300.1 31923.5 lineto
49243.8 31867.3 lineto
49131.3 31811 lineto
48906.4 31811 lineto
48793.9 31754.8 lineto
48737.6 31698.5 lineto
48681.4 31586.1 lineto
48681.4 31361.1 lineto
48737.6 31248.6 lineto
48793.9 31192.4 lineto
48906.4 31136.1 lineto
49131.3 31136.1 lineto
49243.8 31192.4 lineto
49300.1 31248.6 lineto
49356.3 31361.1 lineto
49356.3 31586.1 lineto
49300.1 31698.5 lineto
49243.8 31754.8 lineto
49131.3 31811 lineto
stroke
newpath
50087.5 32317.2 moveto
50200 32317.2 lineto
50312.5 32261 lineto
50368.7 32204.7 lineto
50424.9 32092.2 lineto
50481.2 31867.3 lineto
50481.2 31586.1 lineto
50424.9 31361.1 lineto
50368.7 31248.6 lineto
50312.5 31192.4 lineto
50200 31136.1 lineto
50087.5 31136.1 lineto
49975 31192.4 lineto
49918.8 31248.6 lineto
49862.5 31361.1 lineto
49806.3 31586.1 lineto
49806.3 31867.3 lineto
49862.5 32092.2 lineto
49918.8 32204.7 lineto
49975 32261 lineto
50087.5 32317.2 lineto
stroke
newpath
50931.1 32317.2 moveto
50931.1 32092.2 lineto
stroke
newpath
51381.1 32317.2 moveto
51381.1 32092.2 lineto
stroke
newpath
53124.6 30686.2 moveto
53068.4 30742.4 lineto
52955.9 30911.1 lineto
52899.6 31023.6 lineto
52843.4 31192.4 lineto
52787.1 31473.6 lineto
52787.1 31698.5 lineto
52843.4 31979.8 lineto
52899.6 32148.5 lineto
52955.9 32261 lineto
53068.4 32429.7 lineto
53124.6 32485.9 lineto
stroke
newpath
53462.1 32317.2 moveto
54193.2 32317.2 lineto
53799.5 31867.3 lineto
53968.2 31867.3 lineto
54080.7 31811 lineto
54137 31754.8 lineto
54193.2 31642.3 lineto
54193.2 31361.1 lineto
54137 31248.6 lineto
54080.7 31192.4 lineto
53968.2 31136.1 lineto
53630.8 31136.1 lineto
53518.3 31192.4 lineto
53462.1 31248.6 lineto
stroke
newpath
55599.3 31136.1 moveto
55599.3 32317.2 lineto
stroke
newpath
56105.5 31136.1 moveto
56105.5 31754.8 lineto
56049.2 31867.3 lineto
55936.7 31923.5 lineto
55768 31923.5 lineto
55655.5 31867.3 lineto
55599.3 31811 lineto
stroke
newpath
56836.6 31136.1 moveto
56724.2 31192.4 lineto
56667.9 31248.6 lineto
56611.7 31361.1 lineto
56611.7 31698.5 lineto
56667.9 31811 lineto
56724.2 31867.3 lineto
56836.6 31923.5 lineto
57005.4 31923.5 lineto
57117.9 31867.3 lineto
57174.1 31811 lineto
57230.3 31698.5 lineto
57230.3 31361.1 lineto
57174.1 31248.6 lineto
57117.9 31192.4 lineto
57005.4 31136.1 lineto
56836.6 31136.1 lineto
stroke
newpath
57905.3 31136.1 moveto
57792.8 31192.4 lineto
57736.5 31304.8 lineto
57736.5 32317.2 lineto
stroke
newpath
58805.1 31192.4 moveto
58692.7 31136.1 lineto
58467.7 31136.1 lineto
58355.2 31192.4 lineto
58299 31304.8 lineto
58299 31754.8 lineto
58355.2 31867.3 lineto
58467.7 31923.5 lineto
58692.7 31923.5 lineto
58805.1 31867.3 lineto
58861.4 31754.8 lineto
58861.4 31642.3 lineto
58299 31529.8 lineto
stroke
newpath
59311.3 31192.4 moveto
59423.8 31136.1 lineto
59648.8 31136.1 lineto
59761.3 31192.4 lineto
59817.5 31304.8 lineto
59817.5 31361.1 lineto
59761.3 31473.6 lineto
59648.8 31529.8 lineto
59480.1 31529.8 lineto
59367.6 31586.1 lineto
59311.3 31698.5 lineto
59311.3 31754.8 lineto
59367.6 31867.3 lineto
59480.1 31923.5 lineto
59648.8 31923.5 lineto
59761.3 31867.3 lineto
stroke
newpath
60211.2 30686.2 moveto
60267.5 30742.4 lineto
60379.9 30911.1 lineto
60436.2 31023.6 lineto
60492.4 31192.4 lineto
60548.7 31473.6 lineto
60548.7 31698.5 lineto
60492.4 31979.8 lineto
60436.2 32148.5 lineto
60379.9 32261 lineto
60267.5 32429.7 lineto
60211.2 32485.9 lineto
stroke
newpath
32267.6 30268.1 moveto
32267.6 29954.6 lineto
stroke
newpath
32110.8 30111.4 moveto
32424.4 30111.4 lineto
stroke
0 0 0 setrgbcolor
0 0 0 setrgbcolor
newpath
34170.7 29577.1 moveto
33495.8 29577.1 lineto
stroke
newpath
33833.3 29577.1 moveto
33833.3 30758.2 lineto
33720.8 30589.4 lineto
33608.3 30476.9 lineto
33495.8 30420.7 lineto
stroke
newpath
34676.9 29689.5 moveto
34733.1 29633.3 lineto
34676.9 29577.1 lineto
34620.7 29633.3 lineto
34676.9 29689.5 lineto
34676.9 29577.1 lineto
stroke
newpath
35464.3 30758.2 moveto
35576.8 30758.2 lineto
35689.3 30701.9 lineto
35745.5 30645.7 lineto
35801.8 30533.2 lineto
35858 30308.2 lineto
35858 30027 lineto
35801.8 29802 lineto
35745.5 29689.5 lineto
35689.3 29633.3 lineto
35576.8 29577.1 lineto
35464.3 29577.1 lineto
35351.8 29633.3 lineto
35295.6 29689.5 lineto
35239.3 29802 lineto
35183.1 30027 lineto
35183.1 30308.2 lineto
35239.3 30533.2 lineto
35295.6 30645.7 lineto
35351.8 30701.9 lineto
35464.3 30758.2 lineto
stroke
newpath
36589.2 30758.2 moveto
36701.7 30758.2 lineto
36814.1 30701.9 lineto
36870.4 30645.7 lineto
36926.6 30533.2 lineto
36982.9 30308.2 lineto
36982.9 30027 lineto
36926.6 29802 lineto
36870.4 29689.5 lineto
36814.1 29633.3 lineto
36701.7 29577.1 lineto
36589.2 29577.1 lineto
36476.7 29633.3 lineto
36420.4 29689.5 lineto
36364.2 29802 lineto
36308 30027 lineto
36308 30308.2 lineto
36364.2 30533.2 lineto
36420.4 30645.7 lineto
36476.7 30701.9 lineto
36589.2 30758.2 lineto
stroke
newpath
37714 30758.2 moveto
37826.5 30758.2 lineto
37939 30701.9 lineto
37995.2 30645.7 lineto
38051.5 30533.2 lineto
38107.7 30308.2 lineto
38107.7 30027 lineto
38051.5 29802 lineto
37995.2 29689.5 lineto
37939 29633.3 lineto
37826.5 29577.1 lineto
37714 29577.1 lineto
37601.5 29633.3 lineto
37545.3 29689.5 lineto
37489.1 29802 lineto
37432.8 30027 lineto
37432.8 30308.2 lineto
37489.1 30533.2 lineto
37545.3 30645.7 lineto
37601.5 30701.9 lineto
37714 30758.2 lineto
stroke
newpath
38613.9 29577.1 moveto
38613.9 30364.5 lineto
stroke
newpath
38613.9 30252 moveto
38670.2 30308.2 lineto
38782.6 30364.5 lineto
38951.4 30364.5 lineto
39063.9 30308.2 lineto
39120.1 30195.7 lineto
39120.1 29577.1 lineto
stroke
newpath
39120.1 30195.7 moveto
39176.3 30308.2 lineto
39288.8 30364.5 lineto
39457.6 30364.5 lineto
39570 30308.2 lineto
39626.3 30195.7 lineto
39626.3 29577.1 lineto
stroke
newpath
40188.7 29577.1 moveto
40188.7 30364.5 lineto
stroke
newpath
40188.7 30252 moveto
40245 30308.2 lineto
40357.4 30364.5 lineto
40526.2 30364.5 lineto
40638.7 30308.2 lineto
40694.9 30195.7 lineto
40694.9 29577.1 lineto
stroke
newpath
40694.9 30195.7 moveto
40751.1 30308.2 lineto
40863.6 30364.5 lineto
41032.4 30364.5 lineto
41144.8 30308.2 lineto
41201.1 30195.7 lineto
41201.1 29577.1 lineto
stroke
newpath
43507.1 30814.4 moveto
42494.7 29295.8 lineto
stroke
newpath
45025.6 30758.2 moveto
45138.1 30758.2 lineto
45250.6 30701.9 lineto
45306.8 30645.7 lineto
45363.1 30533.2 lineto
45419.3 30308.2 lineto
45419.3 30027 lineto
45363.1 29802 lineto
45306.8 29689.5 lineto
45250.6 29633.3 lineto
45138.1 29577.1 lineto
45025.6 29577.1 lineto
44913.1 29633.3 lineto
44856.9 29689.5 lineto
44800.6 29802 lineto
44744.4 30027 lineto
44744.4 30308.2 lineto
44800.6 30533.2 lineto
44856.9 30645.7 lineto
44913.1 30701.9 lineto
45025.6 30758.2 lineto
stroke
newpath
45925.5 29689.5 moveto
45981.7 29633.3 lineto
45925.5 29577.1 lineto
45869.3 29633.3 lineto
45925.5 29689.5 lineto
45925.5 29577.1 lineto
stroke
newpath
46712.9 30758.2 moveto
46825.4 30758.2 lineto
46937.9 30701.9 lineto
46994.1 30645.7 lineto
47050.4 30533.2 lineto
47106.6 30308.2 lineto
47106.6 30027 lineto
47050.4 29802 lineto
46994.1 29689.5 lineto
46937.9 29633.3 lineto
46825.4 29577.1 lineto
46712.9 29577.1 lineto
46600.4 29633.3 lineto
46544.2 29689.5 lineto
46487.9 29802 lineto
46431.7 30027 lineto
46431.7 30308.2 lineto
46487.9 30533.2 lineto
46544.2 30645.7 lineto
46600.4 30701.9 lineto
46712.9 30758.2 lineto
stroke
newpath
47500.3 30758.2 moveto
48231.5 30758.2 lineto
47837.8 30308.2 lineto
48006.5 30308.2 lineto
48119 30252 lineto
48175.2 30195.7 lineto
48231.5 30083.2 lineto
48231.5 29802 lineto
48175.2 29689.5 lineto
48119 29633.3 lineto
48006.5 29577.1 lineto
47669 29577.1 lineto
47556.5 29633.3 lineto
47500.3 29689.5 lineto
stroke
newpath
48793.9 29577.1 moveto
49018.9 29577.1 lineto
49131.3 29633.3 lineto
49187.6 29689.5 lineto
49300.1 29858.3 lineto
49356.3 30083.2 lineto
49356.3 30533.2 lineto
49300.1 30645.7 lineto
49243.8 30701.9 lineto
49131.3 30758.2 lineto
48906.4 30758.2 lineto
48793.9 30701.9 lineto
48737.6 30645.7 lineto
48681.4 30533.2 lineto
48681.4 30252 lineto
48737.6 30139.5 lineto
48793.9 30083.2 lineto
48906.4 30027 lineto
49131.3 30027 lineto
49243.8 30083.2 lineto
49300.1 30139.5 lineto
49356.3 30252 lineto
stroke
newpath
50368.7 30364.5 moveto
50368.7 29577.1 lineto
stroke
newpath
50087.5 30814.4 moveto
49806.3 29970.8 lineto
50537.4 29970.8 lineto
stroke
newpath
50931.1 30758.2 moveto
50931.1 30533.2 lineto
stroke
newpath
51381.1 30758.2 moveto
51381.1 30533.2 lineto
stroke
newpath
53124.6 29127.1 moveto
53068.4 29183.4 lineto
52955.9 29352.1 lineto
52899.6 29464.6 lineto
52843.4 29633.3 lineto
52787.1 29914.5 lineto
52787.1 30139.5 lineto
52843.4 30420.7 lineto
52899.6 30589.4 lineto
52955.9 30701.9 lineto
53068.4 30870.6 lineto
53124.6 30926.9 lineto
stroke
newpath
53518.3 30645.7 moveto
53574.5 30701.9 lineto
53687 30758.2 lineto
53968.2 30758.2 lineto
54080.7 30701.9 lineto
54137 30645.7 lineto
54193.2 30533.2 lineto
54193.2 30420.7 lineto
54137 30252 lineto
53462.1 29577.1 lineto
54193.2 29577.1 lineto
stroke
newpath
55261.8 30758.2 moveto
54699.4 30758.2 lineto
54643.2 30195.7 lineto
54699.4 30252 lineto
54811.9 30308.2 lineto
55093.1 30308.2 lineto
55205.6 30252 lineto
55261.8 30195.7 lineto
55318.1 30083.2 lineto
55318.1 29802 lineto
55261.8 29689.5 lineto
55205.6 29633.3 lineto
55093.1 29577.1 lineto
54811.9 29577.1 lineto
54699.4 29633.3 lineto
54643.2 29689.5 lineto
stroke
newpath
56330.4 30758.2 moveto
56105.5 30758.2 lineto
55993 30701.9 lineto
55936.7 30645.7 lineto
55824.3 30476.9 lineto
55768 30252 lineto
55768 29802 lineto
55824.3 29689.5 lineto
55880.5 29633.3 lineto
55993 29577.1 lineto
56218 29577.1 lineto
56330.4 29633.3 lineto
56386.7 29689.5 lineto
56442.9 29802 lineto
56442.9 30083.2 lineto
56386.7 30195.7 lineto
56330.4 30252 lineto
56218 30308.2 lineto
55993 30308.2 lineto
55880.5 30252 lineto
55824.3 30195.7 lineto
55768 30083.2 lineto
stroke
newpath
57849 29577.1 moveto
57849 30758.2 lineto
stroke
newpath
58355.2 29577.1 moveto
58355.2 30195.7 lineto
58299 30308.2 lineto
58186.5 30364.5 lineto
58017.7 30364.5 lineto
57905.3 30308.2 lineto
57849 30252 lineto
stroke
newpath
59086.4 29577.1 moveto
58973.9 29633.3 lineto
58917.6 29689.5 lineto
58861.4 29802 lineto
58861.4 30139.5 lineto
58917.6 30252 lineto
58973.9 30308.2 lineto
59086.4 30364.5 lineto
59255.1 30364.5 lineto
59367.6 30308.2 lineto
59423.8 30252 lineto
59480.1 30139.5 lineto
59480.1 29802 lineto
59423.8 29689.5 lineto
59367.6 29633.3 lineto
59255.1 29577.1 lineto
59086.4 29577.1 lineto
stroke
newpath
60155 29577.1 moveto
60042.5 29633.3 lineto
59986.2 29745.8 lineto
59986.2 30758.2 lineto
stroke
newpath
61054.9 29633.3 moveto
60942.4 29577.1 lineto
60717.4 29577.1 lineto
60604.9 29633.3 lineto
60548.7 29745.8 lineto
60548.7 30195.7 lineto
60604.9 30308.2 lineto
60717.4 30364.5 lineto
60942.4 30364.5 lineto
61054.9 30308.2 lineto
61111.1 30195.7 lineto
61111.1 30083.2 lineto
60548.7 29970.8 lineto
stroke
newpath
61561 29633.3 moveto
61673.5 29577.1 lineto
61898.5 29577.1 lineto
62011 29633.3 lineto
62067.2 29745.8 lineto
62067.2 29802 lineto
62011 29914.5 lineto
61898.5 29970.8 lineto
61729.8 29970.8 lineto
61617.3 30027 lineto
61561 30139.5 lineto
61561 30195.7 lineto
61617.3 30308.2 lineto
61729.8 30364.5 lineto
61898.5 30364.5 lineto
62011 30308.2 lineto
stroke
newpath
62460.9 29127.1 moveto
62517.2 29183.4 lineto
62629.7 29352.1 lineto
62685.9 29464.6 lineto
62742.1 29633.3 lineto
62798.4 29914.5 lineto
62798.4 30139.5 lineto
62742.1 30420.7 lineto
62685.9 30589.4 lineto
62629.7 30701.9 lineto
62517.2 30870.6 lineto
62460.9 30926.9 lineto
stroke
newpath
32355.4 28385.9 moveto
32355.4 28718.7 lineto
32022.6 28718.7 lineto
32022.6 28385.9 lineto
32355.4 28385.9 lineto
poly0
0 0 0 setrgbcolor
0 0 0 setrgbcolor
newpath
34170.7 28018 moveto
33495.8 28018 lineto
stroke
newpath
33833.3 28018 moveto
33833.3 29199.1 lineto
33720.8 29030.4 lineto
33608.3 28917.9 lineto
33495.8 28861.7 lineto
stroke
newpath
34676.9 28130.5 moveto
34733.1 28074.2 lineto
34676.9 28018 lineto
34620.7 28074.2 lineto
34676.9 28130.5 lineto
34676.9 28018 lineto
stroke
newpath
35801.8 29199.1 moveto
35239.3 29199.1 lineto
35183.1 28636.7 lineto
35239.3 28692.9 lineto
35351.8 28749.2 lineto
35633 28749.2 lineto
35745.5 28692.9 lineto
35801.8 28636.7 lineto
35858 28524.2 lineto
35858 28243 lineto
35801.8 28130.5 lineto
35745.5 28074.2 lineto
35633 28018 lineto
35351.8 28018 lineto
35239.3 28074.2 lineto
35183.1 28130.5 lineto
stroke
newpath
36589.2 29199.1 moveto
36701.7 29199.1 lineto
36814.1 29142.9 lineto
36870.4 29086.6 lineto
36926.6 28974.1 lineto
36982.9 28749.2 lineto
36982.9 28467.9 lineto
36926.6 28243 lineto
36870.4 28130.5 lineto
36814.1 28074.2 lineto
36701.7 28018 lineto
36589.2 28018 lineto
36476.7 28074.2 lineto
36420.4 28130.5 lineto
36364.2 28243 lineto
36308 28467.9 lineto
36308 28749.2 lineto
36364.2 28974.1 lineto
36420.4 29086.6 lineto
36476.7 29142.9 lineto
36589.2 29199.1 lineto
stroke
newpath
38107.7 28018 moveto
37432.8 28018 lineto
stroke
newpath
37770.3 28018 moveto
37770.3 29199.1 lineto
37657.8 29030.4 lineto
37545.3 28917.9 lineto
37432.8 28861.7 lineto
stroke
newpath
38613.9 28018 moveto
38613.9 28805.4 lineto
stroke
newpath
38613.9 28692.9 moveto
38670.2 28749.2 lineto
38782.6 28805.4 lineto
38951.4 28805.4 lineto
39063.9 28749.2 lineto
39120.1 28636.7 lineto
39120.1 28018 lineto
stroke
newpath
39120.1 28636.7 moveto
39176.3 28749.2 lineto
39288.8 28805.4 lineto
39457.6 28805.4 lineto
39570 28749.2 lineto
39626.3 28636.7 lineto
39626.3 28018 lineto
stroke
newpath
40188.7 28018 moveto
40188.7 28805.4 lineto
stroke
newpath
40188.7 28692.9 moveto
40245 28749.2 lineto
40357.4 28805.4 lineto
40526.2 28805.4 lineto
40638.7 28749.2 lineto
40694.9 28636.7 lineto
40694.9 28018 lineto
stroke
newpath
40694.9 28636.7 moveto
40751.1 28749.2 lineto
40863.6 28805.4 lineto
41032.4 28805.4 lineto
41144.8 28749.2 lineto
41201.1 28636.7 lineto
41201.1 28018 lineto
stroke
newpath
43507.1 29255.4 moveto
42494.7 27736.8 lineto
stroke
newpath
45025.6 29199.1 moveto
45138.1 29199.1 lineto
45250.6 29142.9 lineto
45306.8 29086.6 lineto
45363.1 28974.1 lineto
45419.3 28749.2 lineto
45419.3 28467.9 lineto
45363.1 28243 lineto
45306.8 28130.5 lineto
45250.6 28074.2 lineto
45138.1 28018 lineto
45025.6 28018 lineto
44913.1 28074.2 lineto
44856.9 28130.5 lineto
44800.6 28243 lineto
44744.4 28467.9 lineto
44744.4 28749.2 lineto
44800.6 28974.1 lineto
44856.9 29086.6 lineto
44913.1 29142.9 lineto
45025.6 29199.1 lineto
stroke
newpath
45925.5 28130.5 moveto
45981.7 28074.2 lineto
45925.5 28018 lineto
45869.3 28074.2 lineto
45925.5 28130.5 lineto
45925.5 28018 lineto
stroke
newpath
46712.9 29199.1 moveto
46825.4 29199.1 lineto
46937.9 29142.9 lineto
46994.1 29086.6 lineto
47050.4 28974.1 lineto
47106.6 28749.2 lineto
47106.6 28467.9 lineto
47050.4 28243 lineto
46994.1 28130.5 lineto
46937.9 28074.2 lineto
46825.4 28018 lineto
46712.9 28018 lineto
46600.4 28074.2 lineto
46544.2 28130.5 lineto
46487.9 28243 lineto
46431.7 28467.9 lineto
46431.7 28749.2 lineto
46487.9 28974.1 lineto
46544.2 29086.6 lineto
46600.4 29142.9 lineto
46712.9 29199.1 lineto
stroke
newpath
48175.2 29199.1 moveto
47612.8 29199.1 lineto
47556.5 28636.7 lineto
47612.8 28692.9 lineto
47725.3 28749.2 lineto
48006.5 28749.2 lineto
48119 28692.9 lineto
48175.2 28636.7 lineto
48231.5 28524.2 lineto
48231.5 28243 lineto
48175.2 28130.5 lineto
48119 28074.2 lineto
48006.5 28018 lineto
47725.3 28018 lineto
47612.8 28074.2 lineto
47556.5 28130.5 lineto
stroke
newpath
48793.9 28018 moveto
49018.9 28018 lineto
49131.3 28074.2 lineto
49187.6 28130.5 lineto
49300.1 28299.2 lineto
49356.3 28524.2 lineto
49356.3 28974.1 lineto
49300.1 29086.6 lineto
49243.8 29142.9 lineto
49131.3 29199.1 lineto
48906.4 29199.1 lineto
48793.9 29142.9 lineto
48737.6 29086.6 lineto
48681.4 28974.1 lineto
48681.4 28692.9 lineto
48737.6 28580.4 lineto
48793.9 28524.2 lineto
48906.4 28467.9 lineto
49131.3 28467.9 lineto
49243.8 28524.2 lineto
49300.1 28580.4 lineto
49356.3 28692.9 lineto
stroke
newpath
50481.2 28018 moveto
49806.3 28018 lineto
stroke
newpath
50143.7 28018 moveto
50143.7 29199.1 lineto
50031.2 29030.4 lineto
49918.8 28917.9 lineto
49806.3 28861.7 lineto
stroke
newpath
50931.1 29199.1 moveto
50931.1 28974.1 lineto
stroke
newpath
51381.1 29199.1 moveto
51381.1 28974.1 lineto
stroke
newpath
53124.6 27568.1 moveto
53068.4 27624.3 lineto
52955.9 27793 lineto
52899.6 27905.5 lineto
52843.4 28074.2 lineto
52787.1 28355.5 lineto
52787.1 28580.4 lineto
52843.4 28861.7 lineto
52899.6 29030.4 lineto
52955.9 29142.9 lineto
53068.4 29311.6 lineto
53124.6 29367.8 lineto
stroke
newpath
54193.2 28018 moveto
53518.3 28018 lineto
stroke
newpath
53855.8 28018 moveto
53855.8 29199.1 lineto
53743.3 29030.4 lineto
53630.8 28917.9 lineto
53518.3 28861.7 lineto
stroke
newpath
54586.9 29199.1 moveto
55318.1 29199.1 lineto
54924.4 28749.2 lineto
55093.1 28749.2 lineto
55205.6 28692.9 lineto
55261.8 28636.7 lineto
55318.1 28524.2 lineto
55318.1 28243 lineto
55261.8 28130.5 lineto
55205.6 28074.2 lineto
55093.1 28018 lineto
54755.6 28018 lineto
54643.2 28074.2 lineto
54586.9 28130.5 lineto
stroke
newpath
56049.2 29199.1 moveto
56161.7 29199.1 lineto
56274.2 29142.9 lineto
56330.4 29086.6 lineto
56386.7 28974.1 lineto
56442.9 28749.2 lineto
56442.9 28467.9 lineto
56386.7 28243 lineto
56330.4 28130.5 lineto
56274.2 28074.2 lineto
56161.7 28018 lineto
56049.2 28018 lineto
55936.7 28074.2 lineto
55880.5 28130.5 lineto
55824.3 28243 lineto
55768 28467.9 lineto
55768 28749.2 lineto
55824.3 28974.1 lineto
55880.5 29086.6 lineto
55936.7 29142.9 lineto
56049.2 29199.1 lineto
stroke
newpath
57849 28018 moveto
57849 29199.1 lineto
stroke
newpath
58355.2 28018 moveto
58355.2 28636.7 lineto
58299 28749.2 lineto
58186.5 28805.4 lineto
58017.7 28805.4 lineto
57905.3 28749.2 lineto
57849 28692.9 lineto
stroke
newpath
59086.4 28018 moveto
58973.9 28074.2 lineto
58917.6 28130.5 lineto
58861.4 28243 lineto
58861.4 28580.4 lineto
58917.6 28692.9 lineto
58973.9 28749.2 lineto
59086.4 28805.4 lineto
59255.1 28805.4 lineto
59367.6 28749.2 lineto
59423.8 28692.9 lineto
59480.1 28580.4 lineto
59480.1 28243 lineto
59423.8 28130.5 lineto
59367.6 28074.2 lineto
59255.1 28018 lineto
59086.4 28018 lineto
stroke
newpath
60155 28018 moveto
60042.5 28074.2 lineto
59986.2 28186.7 lineto
59986.2 29199.1 lineto
stroke
newpath
61054.9 28074.2 moveto
60942.4 28018 lineto
60717.4 28018 lineto
60604.9 28074.2 lineto
60548.7 28186.7 lineto
60548.7 28636.7 lineto
60604.9 28749.2 lineto
60717.4 28805.4 lineto
60942.4 28805.4 lineto
61054.9 28749.2 lineto
61111.1 28636.7 lineto
61111.1 28524.2 lineto
60548.7 28411.7 lineto
stroke
newpath
61561 28074.2 moveto
61673.5 28018 lineto
61898.5 28018 lineto
62011 28074.2 lineto
62067.2 28186.7 lineto
62067.2 28243 lineto
62011 28355.5 lineto
61898.5 28411.7 lineto
61729.8 28411.7 lineto
61617.3 28467.9 lineto
61561 28580.4 lineto
61561 28636.7 lineto
61617.3 28749.2 lineto
61729.8 28805.4 lineto
61898.5 28805.4 lineto
62011 28749.2 lineto
stroke
newpath
62460.9 27568.1 moveto
62517.2 27624.3 lineto
62629.7 27793 lineto
62685.9 27905.5 lineto
62742.1 28074.2 lineto
62798.4 28355.5 lineto
62798.4 28580.4 lineto
62742.1 28861.7 lineto
62685.9 29030.4 lineto
62629.7 29142.9 lineto
62517.2 29311.6 lineto
62460.9 29367.8 lineto
stroke
showpage
grestore
%%EOF
