Designator,Val,Package,Mid X,Mid Y,Rotation,Layer
D1,NCD0805O1,LED_0805_2012Metric,41,-29,0,top
D2,NCD0805O1,LED_0805_2012Metric,59,-29,0,top
D3,NCD0805O1,LED_0805_2012Metric,77,-29,0,top
D4,NCD0805O1,LED_0805_2012Metric,95,-29,0,top
D5,NCD0805O1,LED_0805_2012Metric,113,-29,0,top
D6,NCD0805O1,LED_0805_2012Metric,131,-29,0,top
D7,NCD0805O1,LED_0805_2012Metric,149,-29,0,top
D8,NCD0805O1,LED_0805_2012Metric,167,-29,0,top
D9,NCD0805O1,LED_0805_2012Metric,41,-44,0,top
D10,NCD0805O1,LED_0805_2012Metric,59,-44,0,top
D11,NCD0805O1,LED_0805_2012Metric,77,-44,0,top
D12,NCD0805O1,LED_0805_2012Metric,95,-44,0,top
D13,NCD0805O1,LED_0805_2012Metric,113,-44,0,top
D14,NCD0805O1,LED_0805_2012Metric,131,-44,0,top
D15,NCD0805O1,LED_0805_2012Metric,149,-44,0,top
D16,NCD0805O1,LED_0805_2012Metric,167,-44,0,top
D17,NCD0805O1,LED_0805_2012Metric,41,-59,0,top
D18,NCD0805O1,LED_0805_2012Metric,59,-59,0,top
D19,NCD0805O1,LED_0805_2012Metric,77,-59,0,top
D20,NCD0805O1,LED_0805_2012Metric,95,-59,0,top
D21,NCD0805O1,LED_0805_2012Metric,113,-59,0,top
D22,NCD0805O1,LED_0805_2012Metric,131,-59,0,top
D23,NCD0805O1,LED_0805_2012Metric,149,-59,0,top
D24,NCD0805O1,LED_0805_2012Metric,167,-59,0,top
D25,NCD0805O1,LED_0805_2012Metric,41,-74,0,top
D26,NCD0805O1,LED_0805_2012Metric,59,-74,0,top
D27,NCD0805O1,LED_0805_2012Metric,77,-74,0,top
D28,NCD0805O1,LED_0805_2012Metric,95,-74,0,top
D29,NCD0805O1,LED_0805_2012Metric,113,-74,0,top
D30,NCD0805O1,LED_0805_2012Metric,131,-74,0,top
D31,NCD0805O1,LED_0805_2012Metric,149,-74,0,top
D32,NCD0805O1,LED_0805_2012Metric,167,-74,0,top
D33,NCD0805O1,LED_0805_2012Metric,41,-89,0,top
D34,NCD0805O1,LED_0805_2012Metric,59,-89,0,top
D35,NCD0805O1,LED_0805_2012Metric,77,-89,0,top
D36,NCD0805O1,LED_0805_2012Metric,95,-89,0,top
D37,NCD0805O1,LED_0805_2012Metric,113,-89,0,top
D38,NCD0805O1,LED_0805_2012Metric,131,-89,0,top
D39,NCD0805O1,LED_0805_2012Metric,149,-89,0,top
D40,NCD0805O1,LED_0805_2012Metric,167,-89,0,top
D41,NCD0805O1,LED_0805_2012Metric,41,-104,0,top
D42,NCD0805O1,LED_0805_2012Metric,59,-104,0,top
D43,NCD0805O1,LED_0805_2012Metric,77,-104,0,top
D44,NCD0805O1,LED_0805_2012Metric,95,-104,0,top
D45,NCD0805O1,LED_0805_2012Metric,113,-104,0,top
D46,NCD0805O1,LED_0805_2012Metric,131,-104,0,top
D47,NCD0805O1,LED_0805_2012Metric,149,-104,0,top
D48,NCD0805O1,LED_0805_2012Metric,167,-104,0,top
D49,NCD0805O1,LED_0805_2012Metric,41,-119,0,top
D50,NCD0805O1,LED_0805_2012Metric,59,-119,0,top
D51,NCD0805O1,LED_0805_2012Metric,77,-119,0,top
D52,NCD0805O1,LED_0805_2012Metric,95,-119,0,top
D53,NCD0805O1,LED_0805_2012Metric,113,-119,0,top
D54,NCD0805O1,LED_0805_2012Metric,131,-119,0,top
D55,NCD0805O1,LED_0805_2012Metric,149,-119,0,top
D56,NCD0805O1,LED_0805_2012Metric,167,-119,0,top
D57,NCD0805O1,LED_0805_2012Metric,41,-134,0,top
D58,NCD0805O1,LED_0805_2012Metric,59,-134,0,top
D59,NCD0805O1,LED_0805_2012Metric,77,-134,0,top
D60,NCD0805O1,LED_0805_2012Metric,95,-134,0,top
D61,NCD0805O1,LED_0805_2012Metric,113,-134,0,top
D62,NCD0805O1,LED_0805_2012Metric,131,-134,0,top
D63,NCD0805O1,LED_0805_2012Metric,149,-134,0,top
D64,NCD0805O1,LED_0805_2012Metric,167,-134,0,top
R1,120 Ohm,R_0805_2012Metric,46,-29,0,top
R2,120 Ohm,R_0805_2012Metric,64,-29,0,top
R3,120 Ohm,R_0805_2012Metric,82,-29,0,top
R4,120 Ohm,R_0805_2012Metric,100,-29,0,top
R5,120 Ohm,R_0805_2012Metric,118,-29,0,top
R6,120 Ohm,R_0805_2012Metric,136,-29,0,top
R7,120 Ohm,R_0805_2012Metric,154,-29,0,top
R8,120 Ohm,R_0805_2012Metric,172,-29,0,top
R9,120 Ohm,R_0805_2012Metric,46,-44,0,top
R10,120 Ohm,R_0805_2012Metric,64,-44,0,top
R11,120 Ohm,R_0805_2012Metric,82,-44,0,top
R12,120 Ohm,R_0805_2012Metric,100,-44,0,top
R13,120 Ohm,R_0805_2012Metric,118,-44,0,top
R14,120 Ohm,R_0805_2012Metric,136,-44,0,top
R15,120 Ohm,R_0805_2012Metric,154,-44,0,top
R16,120 Ohm,R_0805_2012Metric,172,-44,0,top
R17,120 Ohm,R_0805_2012Metric,46,-59,0,top
R18,120 Ohm,R_0805_2012Metric,64,-59,0,top
R19,120 Ohm,R_0805_2012Metric,82,-59,0,top
R20,120 Ohm,R_0805_2012Metric,100,-59,0,top
R21,120 Ohm,R_0805_2012Metric,118,-59,0,top
R22,120 Ohm,R_0805_2012Metric,136,-59,0,top
R23,120 Ohm,R_0805_2012Metric,154,-59,0,top
R24,120 Ohm,R_0805_2012Metric,172,-59,0,top
R25,120 Ohm,R_0805_2012Metric,46,-74,0,top
R26,120 Ohm,R_0805_2012Metric,64,-74,0,top
R27,120 Ohm,R_0805_2012Metric,82,-74,0,top
R28,120 Ohm,R_0805_2012Metric,100,-74,0,top
R29,120 Ohm,R_0805_2012Metric,118,-74,0,top
R30,120 Ohm,R_0805_2012Metric,136,-74,0,top
R31,120 Ohm,R_0805_2012Metric,154,-74,0,top
R32,120 Ohm,R_0805_2012Metric,172,-74,0,top
R33,120 Ohm,R_0805_2012Metric,46,-89,0,top
R34,120 Ohm,R_0805_2012Metric,64,-89,0,top
R35,120 Ohm,R_0805_2012Metric,82,-89,0,top
R36,120 Ohm,R_0805_2012Metric,100,-89,0,top
R37,120 Ohm,R_0805_2012Metric,118,-89,0,top
R38,120 Ohm,R_0805_2012Metric,136,-89,0,top
R39,120 Ohm,R_0805_2012Metric,154,-89,0,top
R40,120 Ohm,R_0805_2012Metric,172,-89,0,top
R41,120 Ohm,R_0805_2012Metric,46,-104,0,top
R42,120 Ohm,R_0805_2012Metric,64,-104,0,top
R43,120 Ohm,R_0805_2012Metric,82,-104,0,top
R44,120 Ohm,R_0805_2012Metric,100,-104,0,top
R45,120 Ohm,R_0805_2012Metric,118,-104,0,top
R46,120 Ohm,R_0805_2012Metric,136,-104,0,top
R47,120 Ohm,R_0805_2012Metric,154,-104,0,top
R48,120 Ohm,R_0805_2012Metric,172,-104,0,top
R49,120 Ohm,R_0805_2012Metric,46,-119,0,top
R50,120 Ohm,R_0805_2012Metric,64,-119,0,top
R51,120 Ohm,R_0805_2012Metric,82,-119,0,top
R52,120 Ohm,R_0805_2012Metric,100,-119,0,top
R53,120 Ohm,R_0805_2012Metric,118,-119,0,top
R54,120 Ohm,R_0805_2012Metric,136,-119,0,top
R55,120 Ohm,R_0805_2012Metric,154,-119,0,top
R56,120 Ohm,R_0805_2012Metric,172,-119,0,top
R57,120 Ohm,R_0805_2012Metric,46,-134,0,top
R58,120 Ohm,R_0805_2012Metric,64,-134,0,top
R59,120 Ohm,R_0805_2012Metric,82,-134,0,top
R60,120 Ohm,R_0805_2012Metric,100,-134,0,top
R61,120 Ohm,R_0805_2012Metric,118,-134,0,top
R62,120 Ohm,R_0805_2012Metric,136,-134,0,top
R63,120 Ohm,R_0805_2012Metric,154,-134,0,top
R64,120 Ohm,R_0805_2012Metric,172,-134,0,top
