%!PS-Adobe-3.0
%%Creator: PCBNEW
%%CreationDate: Tue Oct 05 13:12:06 2021
%%Title: C:\Users\vlad.shcherbakov\Documents\PCB Designs\ledbox-git\ledbox\Fabrication\ledbox-NPTH-drl_map.ps
%%Pages: 1
%%PageOrder: Ascend
%%BoundingBox: 0 0 596 842
%%DocumentMedia: A4 595 842 0 () ()
%%Orientation: Landscape
%%EndComments
%%BeginProlog
/line { newpath moveto lineto stroke } bind def
/cir0 { newpath 0 360 arc stroke } bind def
/cir1 { newpath 0 360 arc gsave fill grestore stroke } bind def
/cir2 { newpath 0 360 arc gsave fill grestore stroke } bind def
/arc0 { newpath arc stroke } bind def
/arc1 { newpath 4 index 4 index moveto arc closepath gsave fill
    grestore stroke } bind def
/arc2 { newpath 4 index 4 index moveto arc closepath gsave fill
    grestore stroke } bind def
/poly0 { stroke } bind def
/poly1 { closepath gsave fill grestore stroke } bind def
/poly2 { closepath gsave fill grestore stroke } bind def
/rect0 { rectstroke } bind def
/rect1 { rectfill } bind def
/rect2 { rectfill } bind def
/linemode0 { 0 setlinecap 0 setlinejoin 0 setlinewidth } bind def
/linemode1 { 1 setlinecap 1 setlinejoin } bind def
/dashedline { [200] 100 setdash } bind def
/solidline { [] 0 setdash } bind def
/phantomshow { moveto
    /KicadFont findfont 0.000001 scalefont setfont
    show } bind def
/textshow { gsave
    findfont exch scalefont setfont concat 1 scale 0 0 moveto show
    } bind def
/reencodefont {
  findfont dup length dict begin
  { 1 index /FID ne
    { def }
    { pop pop } ifelse
  } forall
  /Encoding ISOLatin1Encoding def
  currentdict
  end } bind def
/KicadFont /Helvetica reencodefont definefont pop
/KicadFont-Bold /Helvetica-Bold reencodefont definefont pop
/KicadFont-Oblique /Helvetica-Oblique reencodefont definefont pop
/KicadFont-BoldOblique /Helvetica-BoldOblique reencodefont definefont pop
%%EndProlog
%%Page: 1 1
%%BeginPageSetup
gsave
0.0072 0.0072 scale
linemode1
82680 0 translate 90 rotate
39.8213 setlinewidth
%%EndPageSetup
0 0 0 setrgbcolor
31.3554 setlinewidth
newpath
84489.9 78727.3 moveto
84489.9 37024.7 lineto
stroke
0 0 0 setrgbcolor
newpath
32440.1 78727.3 moveto
84489.9 78727.3 lineto
stroke
0 0 0 setrgbcolor
newpath
32440.1 37024.7 moveto
32440.1 78727.3 lineto
stroke
0 0 0 setrgbcolor
newpath
84489.9 37024.7 moveto
32440.1 37024.7 lineto
stroke
78.7399 setlinewidth
newpath
33490.5 77676.9 moveto
35152.3 76015.1 lineto
stroke
newpath
35152.3 77676.9 moveto
33490.5 76015.1 lineto
stroke
newpath
33490.5 39736.9 moveto
35152.3 38075.1 lineto
stroke
newpath
35152.3 39736.9 moveto
33490.5 38075.1 lineto
stroke
newpath
81777.7 77676.9 moveto
83439.5 76015.1 lineto
stroke
newpath
83439.5 77676.9 moveto
81777.7 76015.1 lineto
stroke
newpath
81777.7 39736.9 moveto
83439.5 38075.1 lineto
stroke
newpath
83439.5 39736.9 moveto
81777.7 38075.1 lineto
stroke
118.11 setlinewidth
0 0 0 setrgbcolor
0 0 0 setrgbcolor
newpath
33552 35175.5 moveto
33552 36356.6 lineto
33833.3 36356.6 lineto
34002 36300.3 lineto
34114.5 36187.9 lineto
34170.7 36075.4 lineto
34227 35850.4 lineto
34227 35681.7 lineto
34170.7 35456.7 lineto
34114.5 35344.2 lineto
34002 35231.7 lineto
33833.3 35175.5 lineto
33552 35175.5 lineto
stroke
newpath
34733.1 35175.5 moveto
34733.1 35962.9 lineto
stroke
newpath
34733.1 35737.9 moveto
34789.4 35850.4 lineto
34845.6 35906.6 lineto
34958.1 35962.9 lineto
35070.6 35962.9 lineto
stroke
newpath
35464.3 35175.5 moveto
35464.3 35962.9 lineto
stroke
newpath
35464.3 36356.6 moveto
35408.1 36300.3 lineto
35464.3 36244.1 lineto
35520.5 36300.3 lineto
35464.3 36356.6 lineto
35464.3 36244.1 lineto
stroke
newpath
36195.5 35175.5 moveto
36083 35231.7 lineto
36026.7 35344.2 lineto
36026.7 36356.6 lineto
stroke
newpath
36814.1 35175.5 moveto
36701.7 35231.7 lineto
36645.4 35344.2 lineto
36645.4 36356.6 lineto
stroke
newpath
38164 35175.5 moveto
38164 36356.6 lineto
38557.7 35512.9 lineto
38951.4 36356.6 lineto
38951.4 35175.5 lineto
stroke
newpath
40020 35175.5 moveto
40020 35794.2 lineto
39963.7 35906.6 lineto
39851.3 35962.9 lineto
39626.3 35962.9 lineto
39513.8 35906.6 lineto
stroke
newpath
40020 35231.7 moveto
39907.5 35175.5 lineto
39626.3 35175.5 lineto
39513.8 35231.7 lineto
39457.6 35344.2 lineto
39457.6 35456.7 lineto
39513.8 35569.2 lineto
39626.3 35625.4 lineto
39907.5 35625.4 lineto
40020 35681.7 lineto
stroke
newpath
40582.4 35962.9 moveto
40582.4 34781.8 lineto
stroke
newpath
40582.4 35906.6 moveto
40694.9 35962.9 lineto
40919.9 35962.9 lineto
41032.4 35906.6 lineto
41088.6 35850.4 lineto
41144.8 35737.9 lineto
41144.8 35400.5 lineto
41088.6 35288 lineto
41032.4 35231.7 lineto
40919.9 35175.5 lineto
40694.9 35175.5 lineto
40582.4 35231.7 lineto
stroke
newpath
41651 35288 moveto
41707.3 35231.7 lineto
41651 35175.5 lineto
41594.8 35231.7 lineto
41651 35288 lineto
41651 35175.5 lineto
stroke
newpath
41651 35906.6 moveto
41707.3 35850.4 lineto
41651 35794.2 lineto
41594.8 35850.4 lineto
41651 35906.6 lineto
41651 35794.2 lineto
stroke
newpath
30762.5 34060.4 moveto
32424.4 32398.6 lineto
stroke
newpath
32424.4 34060.4 moveto
30762.5 32398.6 lineto
stroke
0 0 0 setrgbcolor
0 0 0 setrgbcolor
newpath
34114.5 33876.3 moveto
33552 33876.3 lineto
33495.8 33313.8 lineto
33552 33370.1 lineto
33664.5 33426.3 lineto
33945.7 33426.3 lineto
34058.2 33370.1 lineto
34114.5 33313.8 lineto
34170.7 33201.4 lineto
34170.7 32920.1 lineto
34114.5 32807.7 lineto
34058.2 32751.4 lineto
33945.7 32695.2 lineto
33664.5 32695.2 lineto
33552 32751.4 lineto
33495.8 32807.7 lineto
stroke
newpath
34676.9 32807.7 moveto
34733.1 32751.4 lineto
34676.9 32695.2 lineto
34620.7 32751.4 lineto
34676.9 32807.7 lineto
34676.9 32695.2 lineto
stroke
newpath
35126.8 33876.3 moveto
35858 33876.3 lineto
35464.3 33426.3 lineto
35633 33426.3 lineto
35745.5 33370.1 lineto
35801.8 33313.8 lineto
35858 33201.4 lineto
35858 32920.1 lineto
35801.8 32807.7 lineto
35745.5 32751.4 lineto
35633 32695.2 lineto
35295.6 32695.2 lineto
35183.1 32751.4 lineto
35126.8 32807.7 lineto
stroke
newpath
36589.2 33876.3 moveto
36701.7 33876.3 lineto
36814.1 33820 lineto
36870.4 33763.8 lineto
36926.6 33651.3 lineto
36982.9 33426.3 lineto
36982.9 33145.1 lineto
36926.6 32920.1 lineto
36870.4 32807.7 lineto
36814.1 32751.4 lineto
36701.7 32695.2 lineto
36589.2 32695.2 lineto
36476.7 32751.4 lineto
36420.4 32807.7 lineto
36364.2 32920.1 lineto
36308 33145.1 lineto
36308 33426.3 lineto
36364.2 33651.3 lineto
36420.4 33763.8 lineto
36476.7 33820 lineto
36589.2 33876.3 lineto
stroke
newpath
37714 33876.3 moveto
37826.5 33876.3 lineto
37939 33820 lineto
37995.2 33763.8 lineto
38051.5 33651.3 lineto
38107.7 33426.3 lineto
38107.7 33145.1 lineto
38051.5 32920.1 lineto
37995.2 32807.7 lineto
37939 32751.4 lineto
37826.5 32695.2 lineto
37714 32695.2 lineto
37601.5 32751.4 lineto
37545.3 32807.7 lineto
37489.1 32920.1 lineto
37432.8 33145.1 lineto
37432.8 33426.3 lineto
37489.1 33651.3 lineto
37545.3 33763.8 lineto
37601.5 33820 lineto
37714 33876.3 lineto
stroke
newpath
38613.9 32695.2 moveto
38613.9 33482.6 lineto
stroke
newpath
38613.9 33370.1 moveto
38670.2 33426.3 lineto
38782.6 33482.6 lineto
38951.4 33482.6 lineto
39063.9 33426.3 lineto
39120.1 33313.8 lineto
39120.1 32695.2 lineto
stroke
newpath
39120.1 33313.8 moveto
39176.3 33426.3 lineto
39288.8 33482.6 lineto
39457.6 33482.6 lineto
39570 33426.3 lineto
39626.3 33313.8 lineto
39626.3 32695.2 lineto
stroke
newpath
40188.7 32695.2 moveto
40188.7 33482.6 lineto
stroke
newpath
40188.7 33370.1 moveto
40245 33426.3 lineto
40357.4 33482.6 lineto
40526.2 33482.6 lineto
40638.7 33426.3 lineto
40694.9 33313.8 lineto
40694.9 32695.2 lineto
stroke
newpath
40694.9 33313.8 moveto
40751.1 33426.3 lineto
40863.6 33482.6 lineto
41032.4 33482.6 lineto
41144.8 33426.3 lineto
41201.1 33313.8 lineto
41201.1 32695.2 lineto
stroke
newpath
43507.1 33932.5 moveto
42494.7 32414 lineto
stroke
newpath
45025.6 33876.3 moveto
45138.1 33876.3 lineto
45250.6 33820 lineto
45306.8 33763.8 lineto
45363.1 33651.3 lineto
45419.3 33426.3 lineto
45419.3 33145.1 lineto
45363.1 32920.1 lineto
45306.8 32807.7 lineto
45250.6 32751.4 lineto
45138.1 32695.2 lineto
45025.6 32695.2 lineto
44913.1 32751.4 lineto
44856.9 32807.7 lineto
44800.6 32920.1 lineto
44744.4 33145.1 lineto
44744.4 33426.3 lineto
44800.6 33651.3 lineto
44856.9 33763.8 lineto
44913.1 33820 lineto
45025.6 33876.3 lineto
stroke
newpath
45925.5 32807.7 moveto
45981.7 32751.4 lineto
45925.5 32695.2 lineto
45869.3 32751.4 lineto
45925.5 32807.7 lineto
45925.5 32695.2 lineto
stroke
newpath
46431.7 33763.8 moveto
46487.9 33820 lineto
46600.4 33876.3 lineto
46881.6 33876.3 lineto
46994.1 33820 lineto
47050.4 33763.8 lineto
47106.6 33651.3 lineto
47106.6 33538.8 lineto
47050.4 33370.1 lineto
46375.4 32695.2 lineto
47106.6 32695.2 lineto
stroke
newpath
47837.8 33876.3 moveto
47950.2 33876.3 lineto
48062.7 33820 lineto
48119 33763.8 lineto
48175.2 33651.3 lineto
48231.5 33426.3 lineto
48231.5 33145.1 lineto
48175.2 32920.1 lineto
48119 32807.7 lineto
48062.7 32751.4 lineto
47950.2 32695.2 lineto
47837.8 32695.2 lineto
47725.3 32751.4 lineto
47669 32807.7 lineto
47612.8 32920.1 lineto
47556.5 33145.1 lineto
47556.5 33426.3 lineto
47612.8 33651.3 lineto
47669 33763.8 lineto
47725.3 33820 lineto
47837.8 33876.3 lineto
stroke
newpath
48906.4 33370.1 moveto
48793.9 33426.3 lineto
48737.6 33482.6 lineto
48681.4 33595.1 lineto
48681.4 33651.3 lineto
48737.6 33763.8 lineto
48793.9 33820 lineto
48906.4 33876.3 lineto
49131.3 33876.3 lineto
49243.8 33820 lineto
49300.1 33763.8 lineto
49356.3 33651.3 lineto
49356.3 33595.1 lineto
49300.1 33482.6 lineto
49243.8 33426.3 lineto
49131.3 33370.1 lineto
48906.4 33370.1 lineto
48793.9 33313.8 lineto
48737.6 33257.6 lineto
48681.4 33145.1 lineto
48681.4 32920.1 lineto
48737.6 32807.7 lineto
48793.9 32751.4 lineto
48906.4 32695.2 lineto
49131.3 32695.2 lineto
49243.8 32751.4 lineto
49300.1 32807.7 lineto
49356.3 32920.1 lineto
49356.3 33145.1 lineto
49300.1 33257.6 lineto
49243.8 33313.8 lineto
49131.3 33370.1 lineto
stroke
newpath
49750 33876.3 moveto
50537.4 33876.3 lineto
50031.2 32695.2 lineto
stroke
newpath
50931.1 33876.3 moveto
50931.1 33651.3 lineto
stroke
newpath
51381.1 33876.3 moveto
51381.1 33651.3 lineto
stroke
newpath
53124.6 32245.2 moveto
53068.4 32301.5 lineto
52955.9 32470.2 lineto
52899.6 32582.7 lineto
52843.4 32751.4 lineto
52787.1 33032.6 lineto
52787.1 33257.6 lineto
52843.4 33538.8 lineto
52899.6 33707.5 lineto
52955.9 33820 lineto
53068.4 33988.8 lineto
53124.6 34045 lineto
stroke
newpath
54080.7 33482.6 moveto
54080.7 32695.2 lineto
stroke
newpath
53799.5 33932.5 moveto
53518.3 33088.9 lineto
54249.5 33088.9 lineto
stroke
newpath
55599.3 32695.2 moveto
55599.3 33876.3 lineto
stroke
newpath
56105.5 32695.2 moveto
56105.5 33313.8 lineto
56049.2 33426.3 lineto
55936.7 33482.6 lineto
55768 33482.6 lineto
55655.5 33426.3 lineto
55599.3 33370.1 lineto
stroke
newpath
56836.6 32695.2 moveto
56724.2 32751.4 lineto
56667.9 32807.7 lineto
56611.7 32920.1 lineto
56611.7 33257.6 lineto
56667.9 33370.1 lineto
56724.2 33426.3 lineto
56836.6 33482.6 lineto
57005.4 33482.6 lineto
57117.9 33426.3 lineto
57174.1 33370.1 lineto
57230.3 33257.6 lineto
57230.3 32920.1 lineto
57174.1 32807.7 lineto
57117.9 32751.4 lineto
57005.4 32695.2 lineto
56836.6 32695.2 lineto
stroke
newpath
57905.3 32695.2 moveto
57792.8 32751.4 lineto
57736.5 32863.9 lineto
57736.5 33876.3 lineto
stroke
newpath
58805.1 32751.4 moveto
58692.7 32695.2 lineto
58467.7 32695.2 lineto
58355.2 32751.4 lineto
58299 32863.9 lineto
58299 33313.8 lineto
58355.2 33426.3 lineto
58467.7 33482.6 lineto
58692.7 33482.6 lineto
58805.1 33426.3 lineto
58861.4 33313.8 lineto
58861.4 33201.4 lineto
58299 33088.9 lineto
stroke
newpath
59311.3 32751.4 moveto
59423.8 32695.2 lineto
59648.8 32695.2 lineto
59761.3 32751.4 lineto
59817.5 32863.9 lineto
59817.5 32920.1 lineto
59761.3 33032.6 lineto
59648.8 33088.9 lineto
59480.1 33088.9 lineto
59367.6 33145.1 lineto
59311.3 33257.6 lineto
59311.3 33313.8 lineto
59367.6 33426.3 lineto
59480.1 33482.6 lineto
59648.8 33482.6 lineto
59761.3 33426.3 lineto
stroke
newpath
60211.2 32245.2 moveto
60267.5 32301.5 lineto
60379.9 32470.2 lineto
60436.2 32582.7 lineto
60492.4 32751.4 lineto
60548.7 33032.6 lineto
60548.7 33257.6 lineto
60492.4 33538.8 lineto
60436.2 33707.5 lineto
60379.9 33820 lineto
60267.5 33988.8 lineto
60211.2 34045 lineto
stroke
newpath
62348.4 32245.2 moveto
62292.2 32301.5 lineto
62179.7 32470.2 lineto
62123.5 32582.7 lineto
62067.2 32751.4 lineto
62011 33032.6 lineto
62011 33257.6 lineto
62067.2 33538.8 lineto
62123.5 33707.5 lineto
62179.7 33820 lineto
62292.2 33988.8 lineto
62348.4 34045 lineto
stroke
newpath
62798.4 33482.6 moveto
62798.4 32695.2 lineto
stroke
newpath
62798.4 33370.1 moveto
62854.6 33426.3 lineto
62967.1 33482.6 lineto
63135.8 33482.6 lineto
63248.3 33426.3 lineto
63304.6 33313.8 lineto
63304.6 32695.2 lineto
stroke
newpath
64035.7 32695.2 moveto
63923.3 32751.4 lineto
63867 32807.7 lineto
63810.8 32920.1 lineto
63810.8 33257.6 lineto
63867 33370.1 lineto
63923.3 33426.3 lineto
64035.7 33482.6 lineto
64204.5 33482.6 lineto
64317 33426.3 lineto
64373.2 33370.1 lineto
64429.4 33257.6 lineto
64429.4 32920.1 lineto
64373.2 32807.7 lineto
64317 32751.4 lineto
64204.5 32695.2 lineto
64035.7 32695.2 lineto
stroke
newpath
64766.9 33482.6 moveto
65216.8 33482.6 lineto
stroke
newpath
64935.6 33876.3 moveto
64935.6 32863.9 lineto
64991.9 32751.4 lineto
65104.4 32695.2 lineto
65216.8 32695.2 lineto
stroke
newpath
66510.4 33482.6 moveto
66510.4 32301.5 lineto
stroke
newpath
66510.4 33426.3 moveto
66622.9 33482.6 lineto
66847.9 33482.6 lineto
66960.4 33426.3 lineto
67016.6 33370.1 lineto
67072.9 33257.6 lineto
67072.9 32920.1 lineto
67016.6 32807.7 lineto
66960.4 32751.4 lineto
66847.9 32695.2 lineto
66622.9 32695.2 lineto
66510.4 32751.4 lineto
stroke
newpath
67747.8 32695.2 moveto
67635.3 32751.4 lineto
67579 32863.9 lineto
67579 33876.3 lineto
stroke
newpath
68703.9 32695.2 moveto
68703.9 33313.8 lineto
68647.7 33426.3 lineto
68535.2 33482.6 lineto
68310.2 33482.6 lineto
68197.7 33426.3 lineto
stroke
newpath
68703.9 32751.4 moveto
68591.4 32695.2 lineto
68310.2 32695.2 lineto
68197.7 32751.4 lineto
68141.5 32863.9 lineto
68141.5 32976.4 lineto
68197.7 33088.9 lineto
68310.2 33145.1 lineto
68591.4 33145.1 lineto
68703.9 33201.4 lineto
stroke
newpath
69097.6 33482.6 moveto
69547.5 33482.6 lineto
stroke
newpath
69266.3 33876.3 moveto
69266.3 32863.9 lineto
69322.6 32751.4 lineto
69435.1 32695.2 lineto
69547.5 32695.2 lineto
stroke
newpath
70391.2 32751.4 moveto
70278.7 32695.2 lineto
70053.7 32695.2 lineto
69941.2 32751.4 lineto
69885 32863.9 lineto
69885 33313.8 lineto
69941.2 33426.3 lineto
70053.7 33482.6 lineto
70278.7 33482.6 lineto
70391.2 33426.3 lineto
70447.4 33313.8 lineto
70447.4 33201.4 lineto
69885 33088.9 lineto
stroke
newpath
71459.8 32695.2 moveto
71459.8 33876.3 lineto
stroke
newpath
71459.8 32751.4 moveto
71347.3 32695.2 lineto
71122.4 32695.2 lineto
71009.9 32751.4 lineto
70953.6 32807.7 lineto
70897.4 32920.1 lineto
70897.4 33257.6 lineto
70953.6 33370.1 lineto
71009.9 33426.3 lineto
71122.4 33482.6 lineto
71347.3 33482.6 lineto
71459.8 33426.3 lineto
stroke
newpath
71909.8 32245.2 moveto
71966 32301.5 lineto
72078.5 32470.2 lineto
72134.7 32582.7 lineto
72191 32751.4 lineto
72247.2 33032.6 lineto
72247.2 33257.6 lineto
72191 33538.8 lineto
72134.7 33707.5 lineto
72078.5 33820 lineto
71966 33988.8 lineto
71909.8 34045 lineto
stroke
showpage
grestore
%%EOF
