(kicad_pcb (version 20171130) (host pcbnew "(5.1.5)-3")

  (general
    (thickness 1.6)
    (drawings 2)
    (tracks 15)
    (zones 0)
    (modules 2)
    (nets 6)
  )

  (page A4)
  (layers
    (0 F.Cu signal)
    (31 B.Cu signal)
    (32 B.Adhes user)
    (33 F.Adhes user)
    (34 B.Paste user)
    (35 F.Paste user)
    (36 B.SilkS user)
    (37 F.SilkS user)
    (38 B.Mask user)
    (39 F.Mask user)
    (40 Dwgs.User user)
    (41 Cmts.User user)
    (42 Eco1.User user)
    (43 Eco2.User user)
    (44 Edge.Cuts user)
    (45 Margin user)
    (46 B.CrtYd user)
    (47 F.CrtYd user)
    (48 B.Fab user)
    (49 F.Fab user)
  )

  (setup
    (last_trace_width 0.25)
    (user_trace_width 0.25)
    (trace_clearance 0.3)
    (zone_clearance 0.2)
    (zone_45_only no)
    (trace_min 0.2)
    (via_size 0.8)
    (via_drill 0.4)
    (via_min_size 0.4)
    (via_min_drill 0.3)
    (uvia_size 0.3)
    (uvia_drill 0.1)
    (uvias_allowed no)
    (uvia_min_size 0.2)
    (uvia_min_drill 0.1)
    (edge_width 0.05)
    (segment_width 0.2)
    (pcb_text_width 0.3)
    (pcb_text_size 1.5 1.5)
    (mod_edge_width 0.12)
    (mod_text_size 1 1)
    (mod_text_width 0.15)
    (pad_size 1.2 0.9)
    (pad_drill 0)
    (pad_to_mask_clearance 0.051)
    (solder_mask_min_width 0.25)
    (aux_axis_origin 0 0)
    (visible_elements 7FFFFFFF)
    (pcbplotparams
      (layerselection 0x010fc_ffffffff)
      (usegerberextensions false)
      (usegerberattributes false)
      (usegerberadvancedattributes false)
      (creategerberjobfile false)
      (excludeedgelayer true)
      (linewidth 0.100000)
      (plotframeref false)
      (viasonmask false)
      (mode 1)
      (useauxorigin false)
      (hpglpennumber 1)
      (hpglpenspeed 20)
      (hpglpendiameter 15.000000)
      (psnegative false)
      (psa4output false)
      (plotreference true)
      (plotvalue true)
      (plotinvisibletext false)
      (padsonsilk false)
      (subtractmaskfromsilk false)
      (outputformat 1)
      (mirror false)
      (drillshape 0)
      (scaleselection 1)
      (outputdirectory "Fabrication/"))
  )

  (net 0 "")
  (net 1 GND)
  (net 2 "Net-(D1-Pad2)")
  (net 3 +9V)
  (net 4 "Net-(A1-Pad1)")
  (net 5 "Net-(B1-Pad1)")

  (net_class Default "This is the default net class."
    (clearance 0.3)
    (trace_width 0.25)
    (via_dia 0.8)
    (via_drill 0.4)
    (uvia_dia 0.3)
    (uvia_drill 0.1)
    (add_net GND)
    (add_net "Net-(A1-Pad1)")
    (add_net "Net-(B1-Pad1)")
    (add_net "Net-(D1-Pad2)")
  )

  (module "" (layer F.Cu) (tedit 0) (tstamp 0)
    (at 0 0)
    (fp_text reference "" (at 0 0) (layer F.SilkS)
      (effects (font (size 1.27 1.27) (thickness 0.15)))
    )
    (fp_text value "" (at 0 0) (layer F.SilkS)
      (effects (font (size 1.27 1.27) (thickness 0.15)))
    )
  )

  (module "" (layer F.Cu) (tedit 0) (tstamp 0)
    (at 0 0)
    (fp_text reference "" (at 0 0) (layer F.SilkS)
      (effects (font (size 1.27 1.27) (thickness 0.15)))
    )
    (fp_text value "" (at 0 0) (layer F.SilkS)
      (effects (font (size 1.27 1.27) (thickness 0.15)))
    )
  )

  (gr_text + (at 23 26) (layer F.SilkS) (tstamp 5E72B9A3)
    (effects (font (size 1.5 1.5) (thickness 0.3)))
  )
  (gr_text - (at 17 26) (layer F.SilkS)
    (effects (font (size 1.5 1.5) (thickness 0.3)))
  )

  (via (at 31 38) (size 0.8) (drill 0.4) (layers F.Cu B.Cu) (net 1))
  (segment (start 31 37.434315) (end 31 38) (width 0.25) (layer F.Cu) (net 1))
  (segment (start 29.1 36) (end 29.95 36) (width 0.25) (layer F.Cu) (net 1))
  (segment (start 31 37.05) (end 31 37.434315) (width 0.25) (layer F.Cu) (net 1))
  (segment (start 29.95 36) (end 31 37.05) (width 0.25) (layer F.Cu) (net 1))
  (via (at 27 30) (size 0.8) (drill 0.4) (layers F.Cu B.Cu) (net 1))
  (segment (start 27 30) (end 28.8062 30) (width 0.25) (layer F.Cu) (net 1))
  (segment (start 24.05 36) (end 26.9 36) (width 0.25) (layer F.Cu) (net 2))
  (segment (start 20.08561 36) (end 21.95 36) (width 0.25) (layer F.Cu) (net 4))
  (segment (start 17 39.08561) (end 20.08561 36) (width 0.25) (layer F.Cu) (net 4))
  (segment (start 17 43) (end 17 39.08561) (width 0.25) (layer F.Cu) (net 4))
  (segment (start 25.25 39.75) (end 25 40) (width 0.25) (layer F.Cu) (net 5))
  (segment (start 26 43) (end 25.25 42.25) (width 0.25) (layer F.Cu) (net 5))
  (segment (start 29 43) (end 26 43) (width 0.25) (layer F.Cu) (net 5))
  (segment (start 25.25 42.25) (end 25.25 39.75) (width 0.25) (layer F.Cu) (net 5))

  (zone (net 3) (net_name +9V) (layer F.Cu) (tstamp 5E752AF1) (hatch edge 0.508)
    (priority 1)
    (connect_pads (clearance 0.2))
    (min_thickness 0.254)
    (fill (arc_segments 32) (thermal_gap 0.3) (thermal_bridge_width 0.508) (smoothing chamfer) (radius 0.5))
    (polygon
      (pts
        (xy 30 33) (xy 20 33) (xy 20 27) (xy 30 27)
      )
    )
  )
)
